   2.2000000e+02   8.6693800e+05
   2.2500000e+02   9.4252200e+05
   2.3000000e+02   2.0646000e+05
   2.3500000e+02   6.0073000e+04
   2.4000000e+02   4.5823000e+04
   2.4500000e+02   4.4359000e+04
   2.5000000e+02   4.9602000e+04
   2.5500000e+02   5.6470000e+04
   2.6000000e+02   6.6365000e+04
   2.6500000e+02   7.9247000e+04
   2.7000000e+02   9.3983000e+04
   2.7500000e+02   1.0010000e+05
   2.8000000e+02   1.0274300e+05
   2.8500000e+02   1.0465300e+05
   2.9000000e+02   7.7215000e+04
   2.9500000e+02   7.0896000e+04
   3.0000000e+02   3.1888000e+04
   3.0500000e+02   1.9151000e+04
   3.1000000e+02   1.9488000e+04
   3.1500000e+02   1.3471000e+04
   3.2000000e+02   1.5561000e+04
   3.2500000e+02   1.3309000e+04
   3.3000000e+02   1.4422000e+04
   3.3500000e+02   1.4273000e+04
   3.4000000e+02   1.3791000e+04
   3.4500000e+02   1.3953000e+04
   3.5000000e+02   1.5786000e+04
   3.5500000e+02   1.6583000e+04
   3.6000000e+02   1.5412000e+04
   3.6500000e+02   1.7687000e+04
   3.7000000e+02   2.1610000e+04
   3.7500000e+02   2.6555000e+04
   3.8000000e+02   2.9757000e+04
   3.8500000e+02   3.5004000e+04
   3.9000000e+02   4.1850000e+04
   3.9500000e+02   5.0151000e+04
   4.0000000e+02   5.8312000e+04
   4.0500000e+02   6.6127000e+04
   4.1000000e+02   7.3202000e+04
   4.1500000e+02   8.2224000e+04
   4.2000000e+02   9.7375000e+04
   4.2500000e+02   1.0592300e+05
   4.3000000e+02   1.0682400e+05
   4.3500000e+02   1.1143600e+05
   4.4000000e+02   1.2096600e+05
   4.4500000e+02   1.3208700e+05
   4.5000000e+02   1.3873000e+05
   4.5500000e+02   1.3312200e+05
   4.6000000e+02   1.2117400e+05
   4.6500000e+02   1.1014800e+05
   4.7000000e+02   1.0842700e+05
   4.7500000e+02   1.1239500e+05
   4.8000000e+02   1.1076900e+05
   4.8500000e+02   9.6758000e+04
   4.9000000e+02   7.6107000e+04
   4.9500000e+02   5.2736000e+04
   5.0000000e+02   3.2662000e+04
   5.0500000e+02   1.9187000e+04
   5.1000000e+02   1.0985000e+04
   5.1500000e+02   6.5400000e+03
   5.2000000e+02   3.3870000e+03
   5.2500000e+02   2.0270000e+03
   5.3000000e+02   2.2290000e+03
   5.3500000e+02   4.5500000e+02
   5.4000000e+02   2.1440000e+03
   5.4500000e+02   7.0300000e+02
   5.5000000e+02   1.3690000e+03
   5.5500000e+02   7.4800000e+02
   5.6000000e+02   0.0000000e+00
   5.6500000e+02   1.5850000e+03
   5.7000000e+02   6.5300000e+02
   5.7500000e+02   9.7300000e+02
   5.8000000e+02   8.3300000e+02
   5.8500000e+02   1.1080000e+03
   5.9000000e+02   1.0400000e+02
   5.9500000e+02   1.0220000e+03
   6.0000000e+02   7.3400000e+02
   6.0500000e+02   6.8000000e+02
   6.1000000e+02   1.6300000e+03
   6.1500000e+02   6.8500000e+02
   6.2000000e+02   1.7430000e+03
   6.2500000e+02   1.7790000e+03
   6.3000000e+02   5.3600000e+02
   6.3500000e+02   1.6840000e+03
   6.4000000e+02   9.3700000e+02
   6.4500000e+02   3.4700000e+02
   6.5000000e+02   5.5400000e+02
   6.5500000e+02   1.0940000e+03
   6.6000000e+02   4.5500000e+02
   6.6500000e+02   6.6700000e+02
   6.7000000e+02   1.4100000e+03
   6.7500000e+02   2.3400000e+02
   6.8000000e+02   4.7300000e+02
   6.8500000e+02   5.1300000e+02
   6.9000000e+02   5.9900000e+02
   6.9500000e+02   0.0000000e+00
   7.0000000e+02   1.4370000e+03
