   5.0000000e+02   5.6204033e-05
   5.0100000e+02   5.8598197e-05
   5.0200000e+02   6.1079409e-05
   5.0300000e+02   6.3650261e-05
   5.0400000e+02   6.3766733e-05
   5.0500000e+02   6.3662379e-05
   5.0600000e+02   6.3566101e-05
   5.0700000e+02   6.3477680e-05
   5.0800000e+02   6.3396914e-05
   5.0900000e+02   6.3323579e-05
   5.1000000e+02   6.3257488e-05
   5.1100000e+02   6.3198462e-05
   5.1200000e+02   6.3143258e-05
   5.1300000e+02   6.3085673e-05
   5.1400000e+02   6.3034767e-05
   5.1500000e+02   6.2990390e-05
   5.1600000e+02   6.2952354e-05
   5.1700000e+02   6.2920508e-05
   5.1800000e+02   6.2894707e-05
   5.1900000e+02   6.1674163e-05
   5.2000000e+02   5.9664956e-05
   5.2100000e+02   5.7755464e-05
   5.2200000e+02   5.5939422e-05
   5.2300000e+02   5.4211065e-05
   5.2400000e+02   5.2565018e-05
   5.2500000e+02   5.0996324e-05
   5.2600000e+02   4.9500379e-05
   5.2700000e+02   4.6519236e-05
   5.2800000e+02   3.5162496e-05
   5.2900000e+02   2.6857899e-05
   5.3000000e+02   2.0711399e-05
   5.3100000e+02   1.6111951e-05
   5.3200000e+02   1.2635415e-05
   5.3300000e+02   9.9832639e-06
   5.3400000e+02   7.9426808e-06
   5.3500000e+02   6.3601724e-06
   5.3600000e+02   5.1238414e-06
   5.3700000e+02   4.1512989e-06
   5.3800000e+02   3.3813201e-06
   5.3900000e+02   2.7680188e-06
   5.4000000e+02   2.2767256e-06
   5.4100000e+02   2.5196291e-06
   5.4200000e+02   2.8686489e-06
   5.4300000e+02   3.2657898e-06
   5.4400000e+02   3.7177101e-06
   5.4500000e+02   4.2320033e-06
   5.4600000e+02   4.8173289e-06
   5.4700000e+02   5.4835712e-06
   5.4800000e+02   6.2420130e-06
   5.4900000e+02   7.1055439e-06
   5.5000000e+02   8.0888949e-06
   5.5100000e+02   9.2089075e-06
   5.5200000e+02   1.0484853e-05
   5.5300000e+02   1.1938782e-05
   5.5400000e+02   1.3595974e-05
   5.5500000e+02   1.5485406e-05
   5.5600000e+02   1.7456205e-05
   5.5700000e+02   1.6316151e-05
   5.5800000e+02   1.5381139e-05
   5.5900000e+02   1.5455995e-05
   5.6000000e+02   1.5531222e-05
   5.6100000e+02   1.5606815e-05
   5.6200000e+02   1.5682765e-05
   5.6300000e+02   1.5758910e-05
   5.6400000e+02   1.5835328e-05
   5.6500000e+02   1.5912076e-05
   5.6600000e+02   1.5989143e-05
   5.6700000e+02   1.6066527e-05
   5.6800000e+02   1.6144212e-05
   5.6900000e+02   1.6222192e-05
   5.7000000e+02   1.6300460e-05
   5.7100000e+02   1.6379008e-05
   5.7200000e+02   1.6457823e-05
   5.7300000e+02   1.6536901e-05
   5.7400000e+02   1.6616232e-05
   5.7500000e+02   1.6695807e-05
   5.7600000e+02   1.6775618e-05
   5.7700000e+02   1.6855657e-05
   5.7800000e+02   1.6935913e-05
   5.7900000e+02   1.7016353e-05
   5.8000000e+02   1.8422911e-05
   5.8100000e+02   2.4620362e-05
   5.8200000e+02   3.3051915e-05
   5.8300000e+02   4.4593047e-05
   5.8400000e+02   6.0497713e-05
   5.8500000e+02   8.2581582e-05
   5.8600000e+02   1.1350573e-04
   5.8700000e+02   1.5722446e-04
   5.8800000e+02   2.3365125e-04
   5.8900000e+02   4.0119128e-04
   5.9000000e+02   7.2162462e-04
   5.9100000e+02   9.5079676e-04
   5.9200000e+02   1.0720920e-03
   5.9300000e+02   1.2101833e-03
   5.9400000e+02   1.3676740e-03
   5.9500000e+02   1.5476337e-03
   5.9600000e+02   1.7536937e-03
   5.9700000e+02   1.9901717e-03
   5.9800000e+02   2.2622233e-03
   5.9900000e+02   2.5760402e-03
   6.0000000e+02   2.9390988e-03
   6.0100000e+02   3.3604876e-03
   6.0200000e+02   3.8513324e-03
   6.0300000e+02   4.4252794e-03
   6.0400000e+02   5.0287820e-03
   6.0500000e+02   5.6394219e-03
   6.0600000e+02   6.3366701e-03
   6.0700000e+02   7.1356370e-03
   6.0800000e+02   8.0548013e-03
   6.0900000e+02   9.1169854e-03
   6.1000000e+02   1.0350700e-02
   6.1100000e+02   1.1267761e-02
   6.1200000e+02   1.1673174e-02
   6.1300000e+02   1.2093503e-02
   6.1400000e+02   1.2529372e-02
   6.1500000e+02   1.2981441e-02
   6.1600000e+02   1.3450402e-02
   6.1700000e+02   1.3936988e-02
   6.1800000e+02   1.4441973e-02
   6.1900000e+02   1.4966174e-02
   6.2000000e+02   1.5510459e-02
   6.2100000e+02   1.6075745e-02
   6.2200000e+02   1.6663005e-02
   6.2300000e+02   1.7110359e-02
   6.2400000e+02   1.7564989e-02
   6.2500000e+02   1.8031499e-02
   6.2600000e+02   1.8510240e-02
   6.2700000e+02   1.9001580e-02
   6.2800000e+02   1.9505901e-02
   6.2900000e+02   2.0023601e-02
   6.3000000e+02   2.0555095e-02
   6.3100000e+02   2.1100816e-02
   6.3200000e+02   2.1661216e-02
   6.3300000e+02   2.2236766e-02
   6.3400000e+02   2.2827961e-02
   6.3500000e+02   2.3435316e-02
   6.3600000e+02   2.4059373e-02
   6.3700000e+02   2.4700700e-02
   6.3800000e+02   2.5359891e-02
   6.3900000e+02   2.6037571e-02
   6.4000000e+02   2.6734398e-02
   6.4100000e+02   2.7451064e-02
   6.4200000e+02   2.8188298e-02
   6.4300000e+02   2.8946869e-02
   6.4400000e+02   2.9683547e-02
   6.4500000e+02   3.0430884e-02
   6.4600000e+02   3.1198419e-02
   6.4700000e+02   3.1986882e-02
   6.4800000e+02   3.2797039e-02
   6.4900000e+02   3.3629573e-02
   6.5000000e+02   3.4485468e-02
   6.5100000e+02   3.5365637e-02
   6.5200000e+02   3.6271049e-02
   6.5300000e+02   3.7016037e-02
   6.5400000e+02   3.7452055e-02
   6.5500000e+02   3.7891909e-02
   6.5600000e+02   3.8335629e-02
   6.5700000e+02   3.8783248e-02
   6.5800000e+02   3.9234796e-02
   6.5900000e+02   3.9690306e-02
   6.6000000e+02   4.0149810e-02
   6.6100000e+02   4.0613343e-02
   6.6200000e+02   4.1080940e-02
   6.6300000e+02   4.1552633e-02
   6.6400000e+02   4.2028462e-02
   6.6500000e+02   4.2508459e-02
   6.6600000e+02   4.2992664e-02
   6.6700000e+02   4.3480515e-02
   6.6800000e+02   4.3972586e-02
   6.6900000e+02   4.4468963e-02
   6.7000000e+02   4.4969687e-02
   6.7100000e+02   4.5474799e-02
   6.7200000e+02   4.5984340e-02
   6.7300000e+02   4.6498354e-02
   6.7400000e+02   4.7016883e-02
   6.7500000e+02   4.7539975e-02
   6.7600000e+02   4.8067671e-02
   6.7700000e+02   4.8600023e-02
   6.7800000e+02   4.9134980e-02
   6.7900000e+02   4.9673574e-02
   6.8000000e+02   5.0216890e-02
   6.8100000e+02   5.0764974e-02
   6.8200000e+02   5.1317881e-02
   6.8300000e+02   5.1875661e-02
   6.8400000e+02   5.2438371e-02
   6.8500000e+02   5.3006062e-02
   6.8600000e+02   5.3550690e-02
   6.8700000e+02   5.4075259e-02
   6.8800000e+02   5.4603708e-02
   6.8900000e+02   5.5136072e-02
   6.9000000e+02   5.5672384e-02
   6.9100000e+02   5.6212682e-02
   6.9200000e+02   5.6757000e-02
   6.9300000e+02   5.7305378e-02
   6.9400000e+02   5.7857853e-02
   6.9500000e+02   5.8359467e-02
   6.9600000e+02   5.8709114e-02
   6.9700000e+02   5.9051877e-02
   6.9800000e+02   5.9395354e-02
   6.9900000e+02   5.9739539e-02
   7.0000000e+02   6.0084431e-02
   7.0100000e+02   6.0426457e-02
   7.0200000e+02   6.0762030e-02
   7.0300000e+02   6.1098205e-02
   7.0400000e+02   6.1434978e-02
   7.0500000e+02   6.1772347e-02
   7.0600000e+02   6.2110306e-02
   7.0700000e+02   6.2448854e-02
   7.0800000e+02   6.2787987e-02
   7.0900000e+02   6.3127702e-02
   7.1000000e+02   6.3467995e-02
   7.1100000e+02   6.3808863e-02
   7.1200000e+02   6.4150303e-02
   7.1300000e+02   6.4492312e-02
   7.1400000e+02   6.4834886e-02
   7.1500000e+02   6.5176129e-02
   7.1600000e+02   6.5514114e-02
   7.1700000e+02   6.5852609e-02
   7.1800000e+02   6.6191611e-02
   7.1900000e+02   6.6531116e-02
   7.2000000e+02   6.6871121e-02
   7.2100000e+02   6.7211624e-02
   7.2200000e+02   6.7552621e-02
   7.2300000e+02   6.7894109e-02
   7.2400000e+02   6.8236085e-02
   7.2500000e+02   6.8578545e-02
   7.2600000e+02   6.8921487e-02
   7.2700000e+02   6.9264907e-02
   7.2800000e+02   6.9608803e-02
   7.2900000e+02   6.9953172e-02
   7.3000000e+02   7.0298010e-02
   7.3100000e+02   7.0643315e-02
   7.3200000e+02   7.0989083e-02
   7.3300000e+02   7.1335312e-02
   7.3400000e+02   7.1700473e-02
   7.3500000e+02   7.2075518e-02
   7.3600000e+02   7.2442176e-02
   7.3700000e+02   7.2789840e-02
   7.3800000e+02   7.3137945e-02
   7.3900000e+02   7.3486490e-02
   7.4000000e+02   7.3835470e-02
   7.4100000e+02   7.4184885e-02
   7.4200000e+02   7.4534729e-02
   7.4300000e+02   7.4699988e-02
   7.4400000e+02   7.4843507e-02
   7.4500000e+02   7.4987028e-02
   7.4600000e+02   7.5130547e-02
   7.4700000e+02   7.5274061e-02
   7.4800000e+02   7.5417568e-02
   7.4900000e+02   7.5561064e-02
   7.5000000e+02   7.5704548e-02
   7.5100000e+02   7.5848016e-02
   7.5200000e+02   7.5991467e-02
   7.5300000e+02   7.6134896e-02
   7.5400000e+02   7.6278301e-02
   7.5500000e+02   7.6421681e-02
   7.5600000e+02   7.6565032e-02
   7.5700000e+02   7.6724733e-02
   7.5800000e+02   7.6903656e-02
   7.5900000e+02   7.7082468e-02
   7.6000000e+02   7.7261170e-02
   7.6100000e+02   7.7439758e-02
   7.6200000e+02   7.7618232e-02
   7.6300000e+02   7.7795462e-02
   7.6400000e+02   7.7970323e-02
   7.6500000e+02   7.8145069e-02
   7.6600000e+02   7.8319697e-02
   7.6700000e+02   7.8494207e-02
   7.6800000e+02   7.8668597e-02
   7.6900000e+02   7.8842865e-02
   7.7000000e+02   7.9017009e-02
   7.7100000e+02   7.9191029e-02
   7.7200000e+02   7.9364922e-02
   7.7300000e+02   7.9538686e-02
   7.7400000e+02   7.9823510e-02
   7.7500000e+02   8.0350750e-02
   7.7600000e+02   8.0878486e-02
   7.7700000e+02   8.1407647e-02
   7.7800000e+02   8.1939168e-02
   7.7900000e+02   8.2473063e-02
   7.8000000e+02   8.3009351e-02
   7.8100000e+02   8.3548047e-02
   7.8200000e+02   8.4089169e-02
   7.8300000e+02   8.4632734e-02
   7.8400000e+02   8.5178762e-02
   7.8500000e+02   8.5727270e-02
   7.8600000e+02   8.6272057e-02
   7.8700000e+02   8.6792663e-02
   7.8800000e+02   8.7315314e-02
   7.8900000e+02   8.7840025e-02
   7.9000000e+02   8.8366807e-02
   7.9100000e+02   8.8895676e-02
   7.9200000e+02   8.9426645e-02
   7.9300000e+02   8.9959730e-02
   7.9400000e+02   9.0494945e-02
   7.9500000e+02   9.0964756e-02
   7.9600000e+02   9.1246171e-02
   7.9700000e+02   9.1527502e-02
   7.9800000e+02   9.1808749e-02
   7.9900000e+02   9.2089908e-02
   8.0000000e+02   9.2370980e-02
   8.0100000e+02   9.2651961e-02
   8.0200000e+02   9.2932850e-02
   8.0300000e+02   9.3208762e-02
   8.0400000e+02   9.3474786e-02
   8.0500000e+02   9.3740676e-02
   8.0600000e+02   9.4006430e-02
   8.0700000e+02   9.4272046e-02
   8.0800000e+02   9.4537523e-02
   8.0900000e+02   9.4802860e-02
   8.1000000e+02   9.5068054e-02
   8.1100000e+02   9.5333106e-02
   8.1200000e+02   9.5598012e-02
   8.1300000e+02   9.5862772e-02
   8.1400000e+02   9.6127385e-02
   8.1500000e+02   9.6391849e-02
   8.1600000e+02   9.6656162e-02
   8.1700000e+02   9.6920323e-02
   8.1800000e+02   9.7184331e-02
   8.1900000e+02   9.7448185e-02
   8.2000000e+02   9.7711883e-02
   8.2100000e+02   9.7975423e-02
   8.2200000e+02   9.8238806e-02
   8.2300000e+02   9.8505218e-02
   8.2400000e+02   9.8765813e-02
   8.2500000e+02   9.8946094e-02
   8.2600000e+02   9.9126185e-02
   8.2700000e+02   9.9303618e-02
   8.2800000e+02   9.9475936e-02
   8.2900000e+02   9.9648071e-02
   8.3000000e+02   9.9820022e-02
   8.3100000e+02   9.9991788e-02
   8.3200000e+02   1.0016337e-01
   8.3300000e+02   1.0033476e-01
   8.3400000e+02   1.0050597e-01
   8.3500000e+02   1.0067699e-01
   8.3600000e+02   1.0084781e-01
   8.3700000e+02   1.0101845e-01
   8.3800000e+02   1.0118890e-01
   8.3900000e+02   1.0135915e-01
   8.4000000e+02   1.0152921e-01
   8.4100000e+02   1.0169907e-01
   8.4200000e+02   1.0185827e-01
   8.4300000e+02   1.0199451e-01
   8.4400000e+02   1.0213064e-01
   8.4500000e+02   1.0226664e-01
   8.4600000e+02   1.0240251e-01
   8.4700000e+02   1.0253826e-01
   8.4800000e+02   1.0267388e-01
   8.4900000e+02   1.0280937e-01
   8.5000000e+02   1.0294473e-01
   8.5100000e+02   1.0307995e-01
   8.5200000e+02   1.0321504e-01
   8.5300000e+02   1.0335000e-01
   8.5400000e+02   1.0348482e-01
   8.5500000e+02   1.0361950e-01
   8.5600000e+02   1.0375404e-01
   8.5700000e+02   1.0388844e-01
   8.5800000e+02   1.0402269e-01
   8.5900000e+02   1.0415681e-01
   8.6000000e+02   1.0429099e-01
   8.6100000e+02   1.0442727e-01
   8.6200000e+02   1.0456340e-01
   8.6300000e+02   1.0469938e-01
   8.6400000e+02   1.0483519e-01
   8.6500000e+02   1.0497255e-01
   8.6600000e+02   1.0510975e-01
   8.6700000e+02   1.0524678e-01
   8.6800000e+02   1.0538365e-01
   8.6900000e+02   1.0552035e-01
   8.7000000e+02   1.0565689e-01
   8.7100000e+02   1.0579326e-01
   8.7200000e+02   1.0589863e-01
   8.7300000e+02   1.0600221e-01
   8.7400000e+02   1.0610572e-01
   8.7500000e+02   1.0620916e-01
   8.7600000e+02   1.0631252e-01
   8.7700000e+02   1.0641580e-01
   8.7800000e+02   1.0651900e-01
   8.7900000e+02   1.0662211e-01
   8.8000000e+02   1.0672515e-01
   8.8100000e+02   1.0682809e-01
   8.8200000e+02   1.0693095e-01
   8.8300000e+02   1.0703373e-01
   8.8400000e+02   1.0713641e-01
   8.8500000e+02   1.0723899e-01
   8.8600000e+02   1.0734149e-01
   8.8700000e+02   1.0744389e-01
   8.8800000e+02   1.0754619e-01
   8.8900000e+02   1.0764840e-01
   8.9000000e+02   1.0770319e-01
   8.9100000e+02   1.0769333e-01
   8.9200000e+02   1.0768396e-01
   8.9300000e+02   1.0767507e-01
   8.9400000e+02   1.0766665e-01
   8.9500000e+02   1.0765869e-01
   8.9600000e+02   1.0765118e-01
   8.9700000e+02   1.0762312e-01
   8.9800000e+02   1.0759566e-01
   8.9900000e+02   1.0756877e-01
   9.0000000e+02   1.0754245e-01
   9.0100000e+02   1.0751670e-01
   9.0200000e+02   1.0749149e-01
   9.0300000e+02   1.0750468e-01
   9.0400000e+02   1.0758290e-01
   9.0500000e+02   1.0766108e-01
   9.0600000e+02   1.0773920e-01
   9.0700000e+02   1.0781726e-01
   9.0800000e+02   1.0789528e-01
   9.0900000e+02   1.0797323e-01
   9.1000000e+02   1.0805112e-01
   9.1100000e+02   1.0812896e-01
   9.1200000e+02   1.0820673e-01
   9.1300000e+02   1.0828444e-01
   9.1400000e+02   1.0836209e-01
   9.1500000e+02   1.0843967e-01
   9.1600000e+02   1.0851718e-01
   9.1700000e+02   1.0859462e-01
   9.1800000e+02   1.0864778e-01
   9.1900000e+02   1.0868887e-01
   9.2000000e+02   1.0873005e-01
   9.2100000e+02   1.0877130e-01
   9.2200000e+02   1.0881262e-01
   9.2300000e+02   1.0885401e-01
   9.2400000e+02   1.0889546e-01
   9.2500000e+02   1.0917543e-01
   9.2600000e+02   1.0950387e-01
   9.2700000e+02   1.0983244e-01
   9.2800000e+02   1.1016116e-01
   9.2900000e+02   1.1051707e-01
   9.3000000e+02   1.1092036e-01
   9.3100000e+02   1.1132427e-01
   9.3200000e+02   1.1172881e-01
   9.3300000e+02   1.1213397e-01
   9.3400000e+02   1.1253976e-01
   9.3500000e+02   1.1294617e-01
   9.3600000e+02   1.1335322e-01
   9.3700000e+02   1.1376089e-01
   9.3800000e+02   1.1416920e-01
   9.3900000e+02   1.1457814e-01
   9.4000000e+02   1.1502348e-01
   9.4100000e+02   1.1550211e-01
   9.4200000e+02   1.1552704e-01
   9.4300000e+02   1.1532651e-01
   9.4400000e+02   1.1512810e-01
   9.4500000e+02   1.1493177e-01
   9.4600000e+02   1.1473748e-01
   9.4700000e+02   1.1454520e-01
   9.4800000e+02   1.1435489e-01
   9.4900000e+02   1.1417105e-01
   9.5000000e+02   1.1398966e-01
   9.5100000e+02   1.1381006e-01
   9.5200000e+02   1.1363224e-01
   9.5300000e+02   1.1419700e-01
   9.5400000e+02   1.1476407e-01
   9.5500000e+02   1.1533347e-01
   9.5600000e+02   1.1590521e-01
   9.5700000e+02   1.1647933e-01
   9.5800000e+02   1.1705479e-01
   9.5900000e+02   1.1762373e-01
   9.6000000e+02   1.1819497e-01
   9.6100000e+02   1.1876852e-01
   9.6200000e+02   1.1934442e-01
   9.6300000e+02   1.1992268e-01
   9.6400000e+02   1.2050332e-01
   9.6500000e+02   1.2088388e-01
   9.6600000e+02   1.2124727e-01
   9.6700000e+02   1.2161096e-01
   9.6800000e+02   1.2197495e-01
   9.6900000e+02   1.2233926e-01
   9.7000000e+02   1.2270387e-01
   9.7100000e+02   1.2306878e-01
   9.7200000e+02   1.2343401e-01
   9.7300000e+02   1.2379954e-01
   9.7400000e+02   1.2416538e-01
   9.7500000e+02   1.2453154e-01
   9.7600000e+02   1.2489800e-01
   9.7700000e+02   1.2526477e-01
   9.7800000e+02   1.2563186e-01
   9.7900000e+02   1.2599417e-01
   9.8000000e+02   1.2626512e-01
   9.8100000e+02   1.2653595e-01
   9.8200000e+02   1.2680665e-01
   9.8300000e+02   1.2707723e-01
   9.8400000e+02   1.2734768e-01
   9.8500000e+02   1.2761802e-01
   9.8600000e+02   1.2788822e-01
   9.8700000e+02   1.2815831e-01
   9.8800000e+02   1.2842826e-01
   9.8900000e+02   1.2867288e-01
   9.9000000e+02   1.2891662e-01
   9.9100000e+02   1.2916017e-01
   9.9200000e+02   1.2940353e-01
   9.9300000e+02   1.2971993e-01
   9.9400000e+02   1.3003638e-01
   9.9500000e+02   1.3035288e-01
   9.9600000e+02   1.3066942e-01
   9.9700000e+02   1.3098600e-01
   9.9800000e+02   1.3126158e-01
   9.9900000e+02   1.3151426e-01
   1.0000000e+03   1.3176677e-01
   1.0010000e+03   1.3201911e-01
   1.0020000e+03   1.3227128e-01
   1.0030000e+03   1.3252328e-01
   1.0040000e+03   1.3277510e-01
   1.0050000e+03   1.3302676e-01
   1.0060000e+03   1.3327824e-01
   1.0070000e+03   1.3352955e-01
   1.0080000e+03   1.3378069e-01
   1.0090000e+03   1.3403166e-01
   1.0100000e+03   1.3428245e-01
   1.0110000e+03   1.3453307e-01
   1.0120000e+03   1.3478352e-01
   1.0130000e+03   1.3503380e-01
   1.0140000e+03   1.3528390e-01
   1.0150000e+03   1.3553383e-01
   1.0160000e+03   1.3578359e-01
   1.0170000e+03   1.3603317e-01
   1.0180000e+03   1.3628258e-01
   1.0190000e+03   1.3653182e-01
   1.0200000e+03   1.3678088e-01
   1.0210000e+03   1.3702977e-01
   1.0220000e+03   1.3727849e-01
   1.0230000e+03   1.3752703e-01
   1.0240000e+03   1.3777139e-01
   1.0250000e+03   1.3802112e-01
   1.0260000e+03   1.3827067e-01
   1.0270000e+03   1.3852006e-01
   1.0280000e+03   1.3876927e-01
   1.0290000e+03   1.3901831e-01
   1.0300000e+03   1.3926719e-01
   1.0310000e+03   1.3951588e-01
   1.0320000e+03   1.3976441e-01
   1.0330000e+03   1.4001277e-01
   1.0340000e+03   1.4026095e-01
   1.0350000e+03   1.4050897e-01
   1.0360000e+03   1.4076942e-01
   1.0370000e+03   1.4117557e-01
   1.0380000e+03   1.4158227e-01
   1.0390000e+03   1.4198953e-01
   1.0400000e+03   1.4239735e-01
   1.0410000e+03   1.4280573e-01
   1.0420000e+03   1.4321468e-01
   1.0430000e+03   1.4362420e-01
   1.0440000e+03   1.4403429e-01
   1.0450000e+03   1.4445935e-01
   1.0460000e+03   1.4508953e-01
   1.0470000e+03   1.4572254e-01
   1.0480000e+03   1.4635842e-01
   1.0490000e+03   1.4699719e-01
   1.0500000e+03   1.4763891e-01
   1.0510000e+03   1.4828359e-01
   1.0520000e+03   1.4893129e-01
   1.0530000e+03   1.4958203e-01
   1.0540000e+03   1.5023587e-01
   1.0550000e+03   1.5089283e-01
   1.0560000e+03   1.5155297e-01
   1.0570000e+03   1.5208539e-01
   1.0580000e+03   1.5261942e-01
   1.0590000e+03   1.5315509e-01
   1.0600000e+03   1.5369241e-01
   1.0610000e+03   1.5422988e-01
   1.0620000e+03   1.5476733e-01
   1.0630000e+03   1.5530644e-01
   1.0640000e+03   1.5584723e-01
   1.0650000e+03   1.5638973e-01
   1.0660000e+03   1.5693395e-01
   1.0670000e+03   1.5747991e-01
   1.0680000e+03   1.5802763e-01
   1.0690000e+03   1.5857713e-01
   1.0700000e+03   1.5912843e-01
   1.0710000e+03   1.5968154e-01
   1.0720000e+03   1.6023650e-01
   1.0730000e+03   1.6079331e-01
   1.0740000e+03   1.6135201e-01
   1.0750000e+03   1.6177054e-01
   1.0760000e+03   1.6212549e-01
   1.0770000e+03   1.6248065e-01
   1.0780000e+03   1.6283601e-01
   1.0790000e+03   1.6319158e-01
   1.0800000e+03   1.6354736e-01
   1.0810000e+03   1.6390334e-01
   1.0820000e+03   1.6425954e-01
   1.0830000e+03   1.6461595e-01
   1.0840000e+03   1.6497257e-01
   1.0850000e+03   1.6532941e-01
   1.0860000e+03   1.6568647e-01
   1.0870000e+03   1.6602942e-01
   1.0880000e+03   1.6635954e-01
   1.0890000e+03   1.6668976e-01
   1.0900000e+03   1.6702006e-01
   1.0910000e+03   1.6735045e-01
   1.0920000e+03   1.6768093e-01
   1.0930000e+03   1.6801150e-01
   1.0940000e+03   1.6834216e-01
   1.0950000e+03   1.6867291e-01
   1.0960000e+03   1.6900376e-01
   1.0970000e+03   1.6933471e-01
   1.0980000e+03   1.6966575e-01
   1.0990000e+03   1.6999689e-01
   1.1000000e+03   1.7032812e-01
   1.1010000e+03   1.7065946e-01
   1.1020000e+03   1.7099090e-01
   1.1030000e+03   1.7112487e-01
   1.1040000e+03   1.7110452e-01
   1.1050000e+03   1.7082186e-01
   1.1060000e+03   1.7054210e-01
   1.1070000e+03   1.7026519e-01
   1.1080000e+03   1.6999106e-01
   1.1090000e+03   1.6971965e-01
   1.1100000e+03   1.6945091e-01
   1.1110000e+03   1.6918477e-01
   1.1120000e+03   1.6882092e-01
   1.1130000e+03   1.6845964e-01
   1.1140000e+03   1.6810219e-01
   1.1150000e+03   1.6774847e-01
   1.1160000e+03   1.6739841e-01
   1.1170000e+03   1.6705191e-01
   1.1180000e+03   1.6670891e-01
   1.1190000e+03   1.6636933e-01
   1.1200000e+03   1.6603309e-01
   1.1210000e+03   1.6570013e-01
   1.1220000e+03   1.6499074e-01
   1.1230000e+03   1.6426587e-01
   1.1240000e+03   1.6355151e-01
   1.1250000e+03   1.6284735e-01
   1.1260000e+03   1.6169807e-01
   1.1270000e+03   1.6034890e-01
   1.1280000e+03   1.5902953e-01
   1.1290000e+03   1.5773857e-01
   1.1300000e+03   1.5647476e-01
   1.1310000e+03   1.5523691e-01
   1.1320000e+03   1.5402394e-01
   1.1330000e+03   1.5283483e-01
   1.1340000e+03   1.5166864e-01
   1.1350000e+03   1.5052450e-01
   1.1360000e+03   1.4940157e-01
   1.1370000e+03   1.4863749e-01
   1.1380000e+03   1.4693705e-01
   1.1390000e+03   1.4525237e-01
   1.1400000e+03   1.4360455e-01
   1.1410000e+03   1.4199249e-01
   1.1420000e+03   1.4041916e-01
   1.1430000e+03   1.3888284e-01
   1.1440000e+03   1.3738192e-01
   1.1450000e+03   1.3591490e-01
   1.1460000e+03   1.3448037e-01
   1.1470000e+03   1.3307703e-01
   1.1480000e+03   1.3165459e-01
   1.1490000e+03   1.3016454e-01
   1.1500000e+03   1.2870800e-01
   1.1510000e+03   1.2728914e-01
   1.1520000e+03   1.2591151e-01
   1.1530000e+03   1.2456300e-01
   1.1540000e+03   1.2324257e-01
   1.1550000e+03   1.2194918e-01
   1.1560000e+03   1.2068189e-01
   1.1570000e+03   1.1943978e-01
   1.1580000e+03   1.1843371e-01
   1.1590000e+03   1.1784238e-01
   1.1600000e+03   1.1739160e-01
   1.1610000e+03   1.1694487e-01
   1.1620000e+03   1.1650213e-01
   1.1630000e+03   1.1606332e-01
   1.1640000e+03   1.1562836e-01
   1.1650000e+03   1.1519721e-01
   1.1660000e+03   1.1476981e-01
   1.1670000e+03   1.1434609e-01
   1.1680000e+03   1.1392601e-01
   1.1690000e+03   1.1351164e-01
   1.1700000e+03   1.1310232e-01
   1.1710000e+03   1.1269641e-01
   1.1720000e+03   1.1229027e-01
   1.1730000e+03   1.1187262e-01
   1.1740000e+03   1.1145850e-01
   1.1750000e+03   1.1104785e-01
   1.1760000e+03   1.1064063e-01
   1.1770000e+03   1.1023679e-01
   1.1780000e+03   1.0983628e-01
   1.1790000e+03   1.0943904e-01
   1.1800000e+03   1.0904504e-01
   1.1810000e+03   1.0865423e-01
   1.1820000e+03   1.0826655e-01
   1.1830000e+03   1.0753084e-01
   1.1840000e+03   1.0668211e-01
   1.1850000e+03   1.0584575e-01
   1.1860000e+03   1.0502147e-01
   1.1870000e+03   1.0420897e-01
   1.1880000e+03   1.0340797e-01
   1.1890000e+03   1.0261822e-01
   1.1900000e+03   1.0183945e-01
   1.1910000e+03   1.0107142e-01
   1.1920000e+03   1.0031388e-01
   1.1930000e+03   9.9566603e-02
   1.1940000e+03   9.8829366e-02
   1.1950000e+03   9.8101947e-02
   1.1960000e+03   9.7384136e-02
   1.1970000e+03   9.6675729e-02
   1.1980000e+03   9.5976527e-02
   1.1990000e+03   9.5286335e-02
   1.2000000e+03   9.4604973e-02
   1.2010000e+03   9.3932256e-02
   1.2020000e+03   9.3268010e-02
   1.2030000e+03   9.2612064e-02
   1.2040000e+03   9.1964251e-02
   1.2050000e+03   9.1324413e-02
   1.2060000e+03   9.0653862e-02
   1.2070000e+03   8.9972821e-02
   1.2080000e+03   8.9300596e-02
   1.2090000e+03   8.8978634e-02
   1.2100000e+03   9.0963283e-02
   1.2110000e+03   9.3007602e-02
   1.2120000e+03   9.5114294e-02
   1.2130000e+03   9.7286247e-02
   1.2140000e+03   9.9525895e-02
   1.2150000e+03   1.0183705e-01
   1.2160000e+03   1.0422341e-01
   1.2170000e+03   1.0668881e-01
   1.2180000e+03   1.0923742e-01
   1.2190000e+03   1.1187375e-01
   1.2200000e+03   1.1434315e-01
   1.2210000e+03   1.1661125e-01
   1.2220000e+03   1.1894479e-01
   1.2230000e+03   1.2134690e-01
   1.2240000e+03   1.2382098e-01
   1.2250000e+03   1.2637137e-01
   1.2260000e+03   1.2900285e-01
   1.2270000e+03   1.3171841e-01
   1.2280000e+03   1.3452279e-01
   1.2290000e+03   1.3742117e-01
   1.2300000e+03   1.4041928e-01
   1.2310000e+03   1.4154556e-01
   1.2320000e+03   1.4232171e-01
   1.2330000e+03   1.4310310e-01
   1.2340000e+03   1.4388981e-01
   1.2350000e+03   1.4468190e-01
   1.2360000e+03   1.4547945e-01
   1.2370000e+03   1.4628253e-01
   1.2380000e+03   1.4709120e-01
   1.2390000e+03   1.4790556e-01
   1.2400000e+03   1.4872566e-01
   1.2410000e+03   1.4955160e-01
   1.2420000e+03   1.5038344e-01
   1.2430000e+03   1.5122129e-01
   1.2440000e+03   1.5206521e-01
   1.2450000e+03   1.5291530e-01
   1.2460000e+03   1.5377165e-01
   1.2470000e+03   1.5422542e-01
   1.2480000e+03   1.5462468e-01
   1.2490000e+03   1.5502469e-01
   1.2500000e+03   1.5542546e-01
   1.2510000e+03   1.5582699e-01
   1.2520000e+03   1.5622928e-01
   1.2530000e+03   1.5663234e-01
   1.2540000e+03   1.5703618e-01
   1.2550000e+03   1.5744078e-01
   1.2560000e+03   1.5784617e-01
   1.2570000e+03   1.5825234e-01
   1.2580000e+03   1.5865929e-01
   1.2590000e+03   1.5906704e-01
   1.2600000e+03   1.5947558e-01
   1.2610000e+03   1.5988491e-01
   1.2620000e+03   1.6029505e-01
   1.2630000e+03   1.6070600e-01
   1.2640000e+03   1.6111776e-01
   1.2650000e+03   1.6152169e-01
   1.2660000e+03   1.6192235e-01
   1.2670000e+03   1.6232376e-01
   1.2680000e+03   1.6260427e-01
   1.2690000e+03   1.6280179e-01
   1.2700000e+03   1.6299919e-01
   1.2710000e+03   1.6319648e-01
   1.2720000e+03   1.6338953e-01
   1.2730000e+03   1.6311937e-01
   1.2740000e+03   1.6285079e-01
   1.2750000e+03   1.6258376e-01
   1.2760000e+03   1.6231826e-01
   1.2770000e+03   1.6205428e-01
   1.2780000e+03   1.6179180e-01
   1.2790000e+03   1.6153080e-01
   1.2800000e+03   1.6127126e-01
   1.2810000e+03   1.6101317e-01
   1.2820000e+03   1.6075651e-01
   1.2830000e+03   1.6050127e-01
   1.2840000e+03   1.6024742e-01
   1.2850000e+03   1.5999496e-01
   1.2860000e+03   1.5974387e-01
   1.2870000e+03   1.5949413e-01
   1.2880000e+03   1.5924572e-01
   1.2890000e+03   1.5896319e-01
   1.2900000e+03   1.5860309e-01
   1.2910000e+03   1.5824537e-01
   1.2920000e+03   1.5789000e-01
   1.2930000e+03   1.5753695e-01
   1.2940000e+03   1.5718618e-01
   1.2950000e+03   1.5683767e-01
   1.2960000e+03   1.5649140e-01
   1.2970000e+03   1.5614732e-01
   1.2980000e+03   1.5580542e-01
   1.2990000e+03   1.5546567e-01
   1.3000000e+03   1.5512804e-01
   1.3010000e+03   1.5479251e-01
   1.3020000e+03   1.5445904e-01
   1.3030000e+03   1.5412763e-01
   1.3040000e+03   1.5379823e-01
   1.3050000e+03   1.5347083e-01
   1.3060000e+03   1.5314541e-01
   1.3070000e+03   1.5282193e-01
   1.3080000e+03   1.5250039e-01
   1.3090000e+03   1.5218075e-01
   1.3100000e+03   1.5186300e-01
   1.3110000e+03   1.5154723e-01
   1.3120000e+03   1.5123345e-01
   1.3130000e+03   1.5092148e-01
   1.3140000e+03   1.5061131e-01
   1.3150000e+03   1.5030292e-01
   1.3160000e+03   1.4999628e-01
   1.3170000e+03   1.4969139e-01
   1.3180000e+03   1.4938821e-01
   1.3190000e+03   1.4908674e-01
   1.3200000e+03   1.4878713e-01
   1.3210000e+03   1.4849007e-01
   1.3220000e+03   1.4819464e-01
   1.3230000e+03   1.4790084e-01
   1.3240000e+03   1.4760863e-01
   1.3250000e+03   1.4731801e-01
   1.3260000e+03   1.4708434e-01
   1.3270000e+03   1.4687937e-01
   1.3280000e+03   1.4667529e-01
   1.3290000e+03   1.4638681e-01
   1.3300000e+03   1.4597104e-01
   1.3310000e+03   1.4555810e-01
   1.3320000e+03   1.4514797e-01
   1.3330000e+03   1.4474061e-01
   1.3340000e+03   1.4433599e-01
   1.3350000e+03   1.4393407e-01
   1.3360000e+03   1.4353482e-01
   1.3370000e+03   1.4313837e-01
   1.3380000e+03   1.4274541e-01
   1.3390000e+03   1.4235502e-01
   1.3400000e+03   1.4196716e-01
   1.3410000e+03   1.4158179e-01
   1.3420000e+03   1.4119889e-01
   1.3430000e+03   1.4081844e-01
   1.3440000e+03   1.4044040e-01
   1.3450000e+03   1.4006474e-01
   1.3460000e+03   1.3969144e-01
   1.3470000e+03   1.3932046e-01
   1.3480000e+03   1.3873934e-01
   1.3490000e+03   1.3810096e-01
   1.3500000e+03   1.3746855e-01
   1.3510000e+03   1.3684201e-01
   1.3520000e+03   1.3622124e-01
   1.3530000e+03   1.3276462e-01
   1.3540000e+03   1.2945128e-01
   1.3550000e+03   1.2627158e-01
   1.3560000e+03   1.2321683e-01
   1.3570000e+03   1.2027920e-01
   1.3580000e+03   1.1740386e-01
   1.3590000e+03   1.1432446e-01
   1.3600000e+03   1.1136884e-01
   1.3610000e+03   1.0539693e-01
   1.3620000e+03   9.9886659e-02
   1.3630000e+03   9.4780757e-02
   1.3640000e+03   9.0040472e-02
   1.3650000e+03   8.5628976e-02
   1.3660000e+03   8.1514027e-02
   1.3670000e+03   7.7667705e-02
   1.3680000e+03   7.4065668e-02
   1.3690000e+03   7.0686556e-02
   1.3700000e+03   6.7511523e-02
   1.3710000e+03   6.4523852e-02
   1.3720000e+03   6.1708661e-02
   1.3730000e+03   5.9052626e-02
   1.3740000e+03   5.6527741e-02
   1.3750000e+03   5.4063723e-02
   1.3760000e+03   5.1736158e-02
   1.3770000e+03   4.9535192e-02
   1.3780000e+03   4.7451883e-02
   1.3790000e+03   4.5478110e-02
   1.3800000e+03   4.3606472e-02
   1.3810000e+03   4.1830210e-02
   1.3820000e+03   4.0143134e-02
   1.3830000e+03   3.8539572e-02
   1.3840000e+03   3.7014305e-02
   1.3850000e+03   3.6316157e-02
   1.3860000e+03   3.5634086e-02
   1.3870000e+03   3.4967995e-02
   1.3880000e+03   3.4317410e-02
   1.3890000e+03   3.3681865e-02
   1.3900000e+03   3.3060922e-02
   1.3910000e+03   3.2454151e-02
   1.3920000e+03   3.1861045e-02
   1.3930000e+03   3.1281292e-02
   1.3940000e+03   3.0714526e-02
   1.3950000e+03   3.0160386e-02
   1.3960000e+03   2.9772342e-02
   1.3970000e+03   2.9411643e-02
   1.3980000e+03   2.9056403e-02
   1.3990000e+03   2.8706520e-02
   1.4000000e+03   2.8361889e-02
   1.4010000e+03   2.7651055e-02
   1.4020000e+03   2.6961597e-02
   1.4030000e+03   2.6292724e-02
   1.4040000e+03   2.5643676e-02
   1.4050000e+03   2.5013736e-02
   1.4060000e+03   2.4402212e-02
   1.4070000e+03   2.3808444e-02
   1.4080000e+03   2.3231805e-02
   1.4090000e+03   2.2671690e-02
   1.4100000e+03   2.2127524e-02
   1.4110000e+03   2.1598757e-02
   1.4120000e+03   2.1084860e-02
   1.4130000e+03   2.0585327e-02
   1.4140000e+03   2.0288795e-02
   1.4150000e+03   2.0091058e-02
   1.4160000e+03   1.9895285e-02
   1.4170000e+03   1.9702315e-02
   1.4180000e+03   1.9511622e-02
   1.4190000e+03   1.9323170e-02
   1.4200000e+03   1.9136928e-02
   1.4210000e+03   1.8952862e-02
   1.4220000e+03   1.8770941e-02
   1.4230000e+03   1.8591133e-02
   1.4240000e+03   1.8413408e-02
   1.4250000e+03   1.8256389e-02
   1.4260000e+03   1.8112822e-02
   1.4270000e+03   1.7970633e-02
   1.4280000e+03   1.7829802e-02
   1.4290000e+03   1.7690316e-02
   1.4300000e+03   1.7552156e-02
   1.4310000e+03   1.7415309e-02
   1.4320000e+03   1.7279756e-02
   1.4330000e+03   1.7145485e-02
   1.4340000e+03   1.7012479e-02
   1.4350000e+03   1.6880722e-02
   1.4360000e+03   1.6750201e-02
   1.4370000e+03   1.6620900e-02
   1.4380000e+03   1.6492806e-02
   1.4390000e+03   1.6365904e-02
   1.4400000e+03   1.6240181e-02
   1.4410000e+03   1.6115622e-02
   1.4420000e+03   1.5992215e-02
   1.4430000e+03   1.5869946e-02
   1.4440000e+03   1.5748801e-02
   1.4450000e+03   1.5629101e-02
   1.4460000e+03   1.5510512e-02
   1.4470000e+03   1.5393004e-02
   1.4480000e+03   1.5276563e-02
   1.4490000e+03   1.5161179e-02
   1.4500000e+03   1.5046838e-02
   1.4510000e+03   1.5082756e-02
   1.4520000e+03   1.5422901e-02
   1.4530000e+03   1.5771306e-02
   1.4540000e+03   1.6128195e-02
   1.4550000e+03   1.6493800e-02
   1.4560000e+03   1.6868360e-02
   1.4570000e+03   1.7252123e-02
   1.4580000e+03   1.7645255e-02
   1.4590000e+03   1.8047353e-02
   1.4600000e+03   1.8459400e-02
   1.4610000e+03   1.8881675e-02
   1.4620000e+03   1.9314467e-02
   1.4630000e+03   1.9758073e-02
   1.4640000e+03   2.0212801e-02
   1.4650000e+03   2.0678969e-02
   1.4660000e+03   2.1156907e-02
   1.4670000e+03   2.1646955e-02
   1.4680000e+03   2.2149464e-02
   1.4690000e+03   2.2664801e-02
   1.4700000e+03   2.3193341e-02
   1.4710000e+03   2.3735475e-02
   1.4720000e+03   2.4291608e-02
   1.4730000e+03   2.4862160e-02
   1.4740000e+03   2.5448078e-02
   1.4750000e+03   2.6049403e-02
   1.4760000e+03   2.6666532e-02
   1.4770000e+03   2.7299949e-02
   1.4780000e+03   2.7935013e-02
   1.4790000e+03   2.8562753e-02
   1.4800000e+03   2.9206250e-02
   1.4810000e+03   2.9865972e-02
   1.4820000e+03   3.0542400e-02
   1.4830000e+03   3.1236037e-02
   1.4840000e+03   3.1947402e-02
   1.4850000e+03   3.2679641e-02
   1.4860000e+03   3.3431559e-02
   1.4870000e+03   3.4203067e-02
   1.4880000e+03   3.4994776e-02
   1.4890000e+03   3.5807323e-02
   1.4900000e+03   3.6641369e-02
   1.4910000e+03   3.7497602e-02
   1.4920000e+03   3.8376738e-02
   1.4930000e+03   3.9279521e-02
   1.4940000e+03   3.9900154e-02
   1.4950000e+03   4.0376819e-02
   1.4960000e+03   4.0859770e-02
   1.4970000e+03   4.1349107e-02
   1.4980000e+03   4.1844928e-02
   1.4990000e+03   4.2347340e-02
   1.5000000e+03   4.2856448e-02
   1.5010000e+03   4.3372356e-02
   1.5020000e+03   4.3895175e-02
   1.5030000e+03   4.4425016e-02
   1.5040000e+03   4.4961993e-02
   1.5050000e+03   4.5506219e-02
   1.5060000e+03   4.6057819e-02
   1.5070000e+03   4.6616910e-02
   1.5080000e+03   4.7183617e-02
   1.5090000e+03   4.7758066e-02
   1.5100000e+03   4.8340385e-02
   1.5110000e+03   4.8930704e-02
   1.5120000e+03   4.9529163e-02
   1.5130000e+03   5.0135897e-02
   1.5140000e+03   5.0751047e-02
   1.5150000e+03   5.1353473e-02
   1.5160000e+03   5.1920859e-02
   1.5170000e+03   5.2495304e-02
   1.5180000e+03   5.3076917e-02
   1.5190000e+03   5.3665809e-02
   1.5200000e+03   5.4262092e-02
   1.5210000e+03   5.4868349e-02
   1.5220000e+03   5.5488284e-02
   1.5230000e+03   5.6116189e-02
   1.5240000e+03   5.6752193e-02
   1.5250000e+03   5.7396426e-02
   1.5260000e+03   5.8049022e-02
   1.5270000e+03   5.8709133e-02
   1.5280000e+03   5.9377394e-02
   1.5290000e+03   6.0021946e-02
   1.5300000e+03   6.0668272e-02
   1.5310000e+03   6.1322575e-02
   1.5320000e+03   6.1984976e-02
   1.5330000e+03   6.2655610e-02
   1.5340000e+03   6.3334604e-02
   1.5350000e+03   6.4022089e-02
   1.5360000e+03   6.4718201e-02
   1.5370000e+03   6.5423079e-02
   1.5380000e+03   6.6136863e-02
   1.5390000e+03   6.6859699e-02
   1.5400000e+03   6.7591734e-02
   1.5410000e+03   6.8333119e-02
   1.5420000e+03   6.9084008e-02
   1.5430000e+03   6.9844554e-02
   1.5440000e+03   7.0614929e-02
   1.5450000e+03   7.1395292e-02
   1.5460000e+03   7.2185814e-02
   1.5470000e+03   7.2280062e-02
   1.5480000e+03   7.2374316e-02
   1.5490000e+03   7.2468577e-02
   1.5500000e+03   7.2562844e-02
   1.5510000e+03   7.2657113e-02
   1.5520000e+03   7.2751398e-02
   1.5530000e+03   7.2841386e-02
   1.5540000e+03   7.2928216e-02
   1.5550000e+03   7.3015037e-02
   1.5560000e+03   7.3101849e-02
   1.5570000e+03   7.3188652e-02
   1.5580000e+03   7.3275445e-02
   1.5590000e+03   7.3362229e-02
   1.5600000e+03   7.3449003e-02
   1.5610000e+03   7.3535768e-02
   1.5620000e+03   7.3622524e-02
   1.5630000e+03   7.3709270e-02
   1.5640000e+03   7.3796070e-02
   1.5650000e+03   7.3882872e-02
   1.5660000e+03   7.3969665e-02
   1.5670000e+03   7.4056449e-02
   1.5680000e+03   7.4143224e-02
   1.5690000e+03   7.4229990e-02
   1.5700000e+03   7.4316746e-02
   1.5710000e+03   7.4403493e-02
   1.5720000e+03   7.4490231e-02
   1.5730000e+03   7.4576959e-02
   1.5740000e+03   7.4663678e-02
   1.5750000e+03   7.4750388e-02
   1.5760000e+03   7.4837089e-02
   1.5770000e+03   7.4923781e-02
   1.5780000e+03   7.5010463e-02
   1.5790000e+03   7.5097182e-02
   1.5800000e+03   7.5184725e-02
   1.5810000e+03   7.5272260e-02
   1.5820000e+03   7.5359016e-02
   1.5830000e+03   7.5444998e-02
   1.5840000e+03   7.5530970e-02
   1.5850000e+03   7.5616931e-02
   1.5860000e+03   7.5702881e-02
   1.5870000e+03   7.5788822e-02
   1.5880000e+03   7.5874751e-02
   1.5890000e+03   7.5960670e-02
   1.5900000e+03   7.6046579e-02
   1.5910000e+03   7.6132477e-02
   1.5920000e+03   7.6218365e-02
   1.5930000e+03   7.6304242e-02
   1.5940000e+03   7.6390108e-02
   1.5950000e+03   7.6456086e-02
   1.5960000e+03   7.6522022e-02
   1.5970000e+03   7.6587918e-02
   1.5980000e+03   7.6653772e-02
   1.5990000e+03   7.6719586e-02
   1.6000000e+03   7.6785359e-02
