   4.5000000e+02   1.5992579e-02
   4.5100000e+02   2.1498522e-02
   4.5200000e+02   2.5469211e-02
   4.5300000e+02   3.1456801e-02
   4.5400000e+02   4.0864048e-02
   4.5500000e+02   4.2639970e-02
   4.5600000e+02   4.5394071e-02
   4.5700000e+02   4.5154106e-02
   4.5800000e+02   5.1456531e-02
   4.5900000e+02   5.4208756e-02
   4.6000000e+02   5.3168616e-02
   4.6100000e+02   5.8189372e-02
   4.6200000e+02   6.1278187e-02
   4.6300000e+02   6.4652739e-02
   4.6400000e+02   6.3287017e-02
   4.6500000e+02   6.5770449e-02
   4.6600000e+02   6.7462248e-02
   4.6700000e+02   6.7310524e-02
   4.6800000e+02   7.2812821e-02
   4.6900000e+02   7.4742640e-02
   4.7000000e+02   7.3963504e-02
   4.7100000e+02   7.4869091e-02
   4.7200000e+02   7.5636408e-02
   4.7300000e+02   7.8565926e-02
   4.7400000e+02   8.2064467e-02
   4.7500000e+02   7.5097342e-02
   4.7600000e+02   7.7217218e-02
   4.7700000e+02   8.4703439e-02
   4.7800000e+02   8.2068109e-02
   4.7900000e+02   8.4220371e-02
   4.8000000e+02   8.7552070e-02
   4.8100000e+02   8.9279792e-02
   4.8200000e+02   8.7337245e-02
   4.8300000e+02   8.9366959e-02
   4.8400000e+02   8.9206960e-02
   4.8500000e+02   9.0548685e-02
   4.8600000e+02   8.9889359e-02
   4.8700000e+02   8.8626688e-02
   4.8800000e+02   9.3792154e-02
   4.8900000e+02   9.4747349e-02
   4.9000000e+02   9.3534513e-02
   4.9100000e+02   9.4242854e-02
   4.9200000e+02   9.3516316e-02
   4.9300000e+02   9.6420927e-02
   4.9400000e+02   9.7370964e-02
   4.9500000e+02   9.8874690e-02
   4.9600000e+02   1.0386469e-01
   4.9700000e+02   1.0217574e-01
   4.9800000e+02   1.0156489e-01
   4.9900000e+02   1.0362619e-01
   5.0000000e+02   1.0427491e-01
   5.0100000e+02   1.0643787e-01
   5.0200000e+02   1.0626146e-01
   5.0300000e+02   1.0682050e-01
   5.0400000e+02   1.0545948e-01
   5.0500000e+02   1.0637475e-01
   5.0600000e+02   1.0808272e-01
   5.0700000e+02   1.0606913e-01
   5.0800000e+02   1.0270282e-01
   5.0900000e+02   1.0608029e-01
   5.1000000e+02   1.0377024e-01
   5.1100000e+02   1.0515758e-01
   5.1200000e+02   1.0399922e-01
   5.1300000e+02   1.0312052e-01
   5.1400000e+02   1.0631340e-01
   5.1500000e+02   1.0261816e-01
   5.1600000e+02   1.0267865e-01
   5.1700000e+02   1.0147068e-01
   5.1800000e+02   9.7127246e-02
   5.1900000e+02   1.0087184e-01
   5.2000000e+02   9.6807103e-02
   5.2100000e+02   9.6802994e-02
   5.2200000e+02   9.3870205e-02
   5.2300000e+02   9.3261415e-02
   5.2400000e+02   8.7237182e-02
   5.2500000e+02   8.2785219e-02
   5.2600000e+02   8.2687840e-02
   5.2700000e+02   7.9823993e-02
   5.2800000e+02   7.6119176e-02
   5.2900000e+02   7.8064993e-02
   5.3000000e+02   7.4968143e-02
   5.3100000e+02   7.2204086e-02
   5.3200000e+02   6.4456400e-02
   5.3300000e+02   6.2683382e-02
   5.3400000e+02   6.7374333e-02
   5.3500000e+02   6.2680632e-02
   5.3600000e+02   6.1770165e-02
   5.3700000e+02   5.8695733e-02
   5.3800000e+02   5.4635077e-02
   5.3900000e+02   5.6859589e-02
   5.4000000e+02   5.5364040e-02
   5.4100000e+02   6.0929977e-02
   5.4200000e+02   5.2928992e-02
   5.4300000e+02   5.4702797e-02
   5.4400000e+02   5.3767841e-02
   5.4500000e+02   6.0365175e-02
   5.4600000e+02   5.8468146e-02
   5.4700000e+02   5.5823097e-02
   5.4800000e+02   6.0122198e-02
   5.4900000e+02   5.8436197e-02
   5.5000000e+02   6.1937423e-02
   5.5100000e+02   7.0198975e-02
   5.5200000e+02   6.6372170e-02
   5.5300000e+02   6.4960328e-02
   5.5400000e+02   6.9023318e-02
   5.5500000e+02   6.8515385e-02
   5.5600000e+02   6.9133069e-02
   5.5700000e+02   7.0061739e-02
   5.5800000e+02   7.2900795e-02
   5.5900000e+02   7.4872184e-02
   5.6000000e+02   7.3834066e-02
   5.6100000e+02   7.1849362e-02
   5.6200000e+02   7.3369895e-02
   5.6300000e+02   7.8249637e-02
   5.6400000e+02   7.3204580e-02
   5.6500000e+02   7.2734597e-02
   5.6600000e+02   7.5363548e-02
   5.6700000e+02   6.8868224e-02
   5.6800000e+02   7.1626076e-02
   5.6900000e+02   6.7715229e-02
   5.7000000e+02   6.5541320e-02
   5.7100000e+02   6.7095842e-02
   5.7200000e+02   6.3662448e-02
   5.7300000e+02   6.2520305e-02
   5.7400000e+02   6.1040222e-02
   5.7500000e+02   6.0217318e-02
   5.7600000e+02   5.7505247e-02
   5.7700000e+02   5.7742374e-02
   5.7800000e+02   6.1958206e-02
   5.7900000e+02   6.2463755e-02
   5.8000000e+02   6.9618483e-02
   5.8100000e+02   6.9551610e-02
   5.8200000e+02   7.4918339e-02
   5.8300000e+02   8.3080454e-02
   5.8400000e+02   8.4572860e-02
   5.8500000e+02   9.0537194e-02
   5.8600000e+02   9.4735130e-02
   5.8700000e+02   1.0290676e-01
   5.8800000e+02   1.0507903e-01
   5.8900000e+02   1.1104182e-01
   5.9000000e+02   1.1207784e-01
   5.9100000e+02   1.1271712e-01
   5.9200000e+02   1.1895267e-01
   5.9300000e+02   1.2379053e-01
   5.9400000e+02   1.2520238e-01
   5.9500000e+02   1.2502972e-01
   5.9600000e+02   1.2723841e-01
   5.9700000e+02   1.2667839e-01
   5.9800000e+02   1.3121544e-01
   5.9900000e+02   1.2938818e-01
   6.0000000e+02   1.3286027e-01
   6.0100000e+02   1.3032728e-01
   6.0200000e+02   1.3316030e-01
   6.0300000e+02   1.3652775e-01
   6.0400000e+02   1.3399093e-01
   6.0500000e+02   1.3484552e-01
   6.0600000e+02   1.3373024e-01
   6.0700000e+02   1.3189396e-01
   6.0800000e+02   1.3712865e-01
   6.0900000e+02   1.3766979e-01
   6.1000000e+02   1.3551473e-01
   6.1100000e+02   1.3571934e-01
   6.1200000e+02   1.3573362e-01
   6.1300000e+02   1.3241856e-01
   6.1400000e+02   1.3559190e-01
   6.1500000e+02   1.3676660e-01
   6.1600000e+02   1.3275975e-01
   6.1700000e+02   1.3731784e-01
   6.1800000e+02   1.3327723e-01
   6.1900000e+02   1.3470813e-01
   6.2000000e+02   1.3307305e-01
   6.2100000e+02   1.3404505e-01
   6.2200000e+02   1.3652180e-01
   6.2300000e+02   1.3267086e-01
   6.2400000e+02   1.3521674e-01
   6.2500000e+02   1.3383865e-01
   6.2600000e+02   1.3458303e-01
   6.2700000e+02   1.3321409e-01
   6.2800000e+02   1.3638283e-01
   6.2900000e+02   1.3688216e-01
   6.3000000e+02   1.3384744e-01
   6.3100000e+02   1.2969133e-01
   6.3200000e+02   1.3350469e-01
   6.3300000e+02   1.3595297e-01
   6.3400000e+02   1.3334108e-01
   6.3500000e+02   1.3209284e-01
   6.3600000e+02   1.3248608e-01
   6.3700000e+02   1.2654854e-01
   6.3800000e+02   1.3197017e-01
   6.3900000e+02   1.3134267e-01
   6.4000000e+02   1.3135307e-01
   6.4100000e+02   1.3189116e-01
   6.4200000e+02   1.2913109e-01
   6.4300000e+02   1.2861632e-01
   6.4400000e+02   1.3285829e-01
   6.4500000e+02   1.3016752e-01
   6.4600000e+02   1.3044111e-01
   6.4700000e+02   1.3268690e-01
   6.4800000e+02   1.3048620e-01
   6.4900000e+02   1.3237975e-01
   6.5000000e+02   1.3130405e-01
