   2.5000000e+02   1.1273600e+05
   2.5200000e+02   1.1273600e+05
   2.5400000e+02   1.1273600e+05
   2.5600000e+02   1.1382400e+05
   2.5800000e+02   1.1504000e+05
   2.6000000e+02   1.1629600e+05
   2.6200000e+02   1.1756400e+05
   2.6400000e+02   1.1887600e+05
   2.6600000e+02   1.2020800e+05
   2.6800000e+02   1.2154400e+05
   2.7000000e+02   1.2288000e+05
   2.7200000e+02   1.2309600e+05
   2.7400000e+02   1.2195200e+05
   2.7600000e+02   1.2080800e+05
   2.7800000e+02   1.1984000e+05
   2.8000000e+02   1.1887200e+05
   2.8200000e+02   1.1762800e+05
   2.8400000e+02   1.1482000e+05
   2.8600000e+02   1.1200800e+05
   2.8800000e+02   1.0714000e+05
   2.9000000e+02   9.8364000e+04
   2.9200000e+02   9.1636000e+04
   2.9400000e+02   8.5820000e+04
   2.9600000e+02   7.7100000e+04
   2.9800000e+02   6.9444000e+04
   3.0000000e+02   6.4440000e+04
   3.0200000e+02   6.1300000e+04
   3.0400000e+02   5.8828000e+04
   3.0600000e+02   5.6908000e+04
   3.0800000e+02   5.7620000e+04
   3.1000000e+02   5.9156000e+04
   3.1200000e+02   6.2248000e+04
   3.1400000e+02   6.5344000e+04
   3.1600000e+02   6.8312000e+04
   3.1800000e+02   7.1208000e+04
   3.2000000e+02   7.4508000e+04
   3.2200000e+02   7.8284000e+04
   3.2400000e+02   8.2060000e+04
   3.2600000e+02   8.5592000e+04
   3.2800000e+02   8.8516000e+04
   3.3000000e+02   9.0856000e+04
   3.3200000e+02   9.3192000e+04
   3.3400000e+02   9.5532000e+04
   3.3600000e+02   9.9792000e+04
   3.3800000e+02   1.0447600e+05
   3.4000000e+02   1.0847200e+05
   3.4200000e+02   1.1099600e+05
   3.4400000e+02   1.1352400e+05
   3.4600000e+02   1.1605200e+05
   3.4800000e+02   1.1875200e+05
   3.5000000e+02   1.2209200e+05
   3.5200000e+02   1.2543600e+05
   3.5400000e+02   1.2877600e+05
   3.5600000e+02   1.3212000e+05
   3.5800000e+02   1.3363200e+05
   3.6000000e+02   1.3494000e+05
   3.6200000e+02   1.3604400e+05
   3.6400000e+02   1.3697200e+05
   3.6600000e+02   1.3790000e+05
   3.6800000e+02   1.3885600e+05
   3.7000000e+02   1.3996800e+05
   3.7200000e+02   1.4108400e+05
   3.7400000e+02   1.4219600e+05
   3.7600000e+02   1.4331200e+05
   3.7800000e+02   1.4442400e+05
   3.8000000e+02   1.4523200e+05
   3.8200000e+02   1.4523200e+05
   3.8400000e+02   1.4866800e+05
   3.8600000e+02   1.5390800e+05
   3.8800000e+02   1.5954400e+05
   3.9000000e+02   1.6778000e+05
   3.9200000e+02   1.8000400e+05
   3.9400000e+02   1.9154000e+05
   3.9600000e+02   2.0212400e+05
   3.9800000e+02   2.1271200e+05
   4.0000000e+02   2.2329600e+05
   4.0200000e+02   2.3618800e+05
   4.0400000e+02   2.5336800e+05
   4.0600000e+02   2.7054800e+05
   4.0800000e+02   2.8735600e+05
   4.1000000e+02   3.0395600e+05
   4.1200000e+02   3.2134400e+05
   4.1400000e+02   3.4259600e+05
   4.1600000e+02   3.6384800e+05
   4.1800000e+02   3.8568000e+05
   4.2000000e+02   4.0756000e+05
   4.2200000e+02   4.2988000e+05
   4.2400000e+02   4.6120000e+05
   4.2600000e+02   4.8184000e+05
   4.2800000e+02   5.0084000e+05
   4.3000000e+02   5.2860000e+05
   4.3200000e+02   5.5216000e+05
   4.3400000e+02   5.5216000e+05
   4.3600000e+02   5.4704000e+05
   4.3800000e+02   5.0156000e+05
   4.4000000e+02   4.1328000e+05
   4.4200000e+02   3.6324000e+05
   4.4400000e+02   2.8272400e+05
   4.4600000e+02   2.3722400e+05
   4.4800000e+02   1.7332000e+05
   4.5000000e+02   1.0329200e+05
   4.5200000e+02   6.2640000e+04
   4.5400000e+02   3.6170000e+04
   4.5600000e+02   3.0698800e+04
   4.5800000e+02   2.5886400e+04
   4.6000000e+02   2.3388800e+04
   4.6200000e+02   2.0891200e+04
   4.6400000e+02   1.9260800e+04
   4.6600000e+02   1.8142400e+04
   4.6800000e+02   1.7025600e+04
   4.7000000e+02   1.6156400e+04
   4.7200000e+02   1.5310000e+04
   4.7400000e+02   1.5048400e+04
   4.7600000e+02   1.4792800e+04
   4.7800000e+02   1.4657200e+04
   4.8000000e+02   1.4550000e+04
   4.8200000e+02   1.4881200e+04
   4.8400000e+02   1.5212400e+04
   4.8600000e+02   1.5543600e+04
   4.8800000e+02   1.5898000e+04
   4.9000000e+02   1.6684000e+04
   4.9200000e+02   1.7469600e+04
   4.9400000e+02   1.8255600e+04
   4.9600000e+02   1.9041200e+04
   4.9800000e+02   1.9891200e+04
   5.0000000e+02   2.0862000e+04
   5.0200000e+02   2.1832800e+04
   5.0400000e+02   2.2803600e+04
   5.0600000e+02   2.3774400e+04
   5.0800000e+02   2.4745200e+04
   5.1000000e+02   2.5773600e+04
   5.1200000e+02   2.6936800e+04
   5.1400000e+02   2.8100000e+04
   5.1600000e+02   2.9263200e+04
   5.1800000e+02   3.0426400e+04
   5.2000000e+02   3.1589600e+04
   5.2200000e+02   3.2851200e+04
   5.2400000e+02   3.4397600e+04
   5.2600000e+02   3.5944000e+04
   5.2800000e+02   3.7490000e+04
   5.3000000e+02   3.9036400e+04
   5.3200000e+02   4.0584000e+04
   5.3400000e+02   4.2088000e+04
   5.3600000e+02   4.3592000e+04
   5.3800000e+02   4.5092000e+04
   5.4000000e+02   4.6592000e+04
   5.4200000e+02   4.8148000e+04
   5.4400000e+02   4.9708000e+04
   5.4600000e+02   5.1268000e+04
   5.4800000e+02   5.2496000e+04
   5.5000000e+02   5.3412000e+04
   5.5200000e+02   5.4080000e+04
   5.5400000e+02   5.4520000e+04
   5.5600000e+02   5.4540000e+04
   5.5800000e+02   5.4164000e+04
   5.6000000e+02   5.3788000e+04
   5.6200000e+02   5.2276000e+04
   5.6400000e+02   5.0572000e+04
   5.6600000e+02   4.8828000e+04
   5.6800000e+02   4.6948000e+04
   5.7000000e+02   4.5072000e+04
   5.7200000e+02   4.3340000e+04
   5.7400000e+02   4.1716000e+04
   5.7600000e+02   4.0092000e+04
   5.7800000e+02   3.8467600e+04
   5.8000000e+02   3.7020000e+04
   5.8200000e+02   3.5676400e+04
   5.8400000e+02   3.4332800e+04
   5.8600000e+02   3.2851600e+04
   5.8800000e+02   3.1075200e+04
   5.9000000e+02   2.8324400e+04
   5.9200000e+02   2.5470000e+04
   5.9400000e+02   2.2574800e+04
   5.9600000e+02   1.9800000e+04
   5.9800000e+02   1.7058400e+04
   6.0000000e+02   1.4677200e+04
   6.0200000e+02   1.3622400e+04
   6.0400000e+02   1.2567600e+04
   6.0600000e+02   1.1513200e+04
   6.0800000e+02   1.0477600e+04
   6.1000000e+02   9.4436000e+03
   6.1200000e+02   8.5912000e+03
   6.1400000e+02   7.7620000e+03
   6.1600000e+02   7.3448000e+03
   6.1800000e+02   6.9272000e+03
   6.2000000e+02   6.5096000e+03
   6.2200000e+02   6.1932000e+03
   6.2400000e+02   5.9068000e+03
   6.2600000e+02   5.6200000e+03
   6.2800000e+02   5.3668000e+03
   6.3000000e+02   5.1488000e+03
   6.3200000e+02   4.9308000e+03
   6.3400000e+02   4.7308000e+03
   6.3600000e+02   4.6024000e+03
   6.3800000e+02   4.4736000e+03
   6.4000000e+02   4.3452000e+03
   6.4200000e+02   4.2168000e+03
   6.4400000e+02   4.0884000e+03
   6.4600000e+02   3.9650800e+03
   6.4800000e+02   3.8576000e+03
   6.5000000e+02   3.7501200e+03
   6.5200000e+02   3.6426400e+03
   6.5400000e+02   3.5351600e+03
   6.5600000e+02   3.4276800e+03
   6.5800000e+02   3.3202000e+03
   6.6000000e+02   3.2265600e+03
   6.6200000e+02   3.1402800e+03
   6.6400000e+02   3.0539600e+03
   6.6600000e+02   2.9676800e+03
   6.6800000e+02   2.8814000e+03
   6.7000000e+02   2.7951200e+03
   6.7200000e+02   2.7088400e+03
   6.7400000e+02   2.6276400e+03
   6.7600000e+02   2.5544000e+03
   6.7800000e+02   2.4811600e+03
   6.8000000e+02   2.4079200e+03
   6.8200000e+02   2.3346800e+03
   6.8400000e+02   2.2614800e+03
   6.8600000e+02   2.1882400e+03
   6.8800000e+02   2.1150000e+03
   6.9000000e+02   2.0519600e+03
   6.9200000e+02   2.0004800e+03
   6.9400000e+02   1.9490400e+03
   6.9600000e+02   1.8975600e+03
   6.9800000e+02   1.8460800e+03
   7.0000000e+02   1.7942800e+03
   7.0200000e+02   1.7410000e+03
   7.0400000e+02   1.6877600e+03
   7.0600000e+02   1.6344800e+03
   7.0800000e+02   1.5835200e+03
   7.1000000e+02   1.5404800e+03
   7.1200000e+02   1.4974000e+03
   7.1400000e+02   1.4543600e+03
   7.1600000e+02   1.4113200e+03
   7.1800000e+02   1.3682800e+03
   7.2000000e+02   1.3258800e+03
   7.2200000e+02   1.2851600e+03
   7.2400000e+02   1.2444400e+03
   7.2600000e+02   1.2036800e+03
   7.2800000e+02   1.1528000e+03
   7.3000000e+02   1.1022000e+03
   7.3200000e+02   1.1022000e+03
   7.3400000e+02   1.1022000e+03
   7.3600000e+02   1.1017600e+03
   7.3800000e+02   1.1004800e+03
   7.4000000e+02   1.1158800e+03
   7.4200000e+02   1.1616400e+03
   7.4400000e+02   1.2074000e+03
   7.4600000e+02   1.2660400e+03
   7.4800000e+02   1.3332400e+03
   7.5000000e+02   1.4052400e+03
   7.5200000e+02   1.5153200e+03
   7.5400000e+02   1.5417600e+03
   7.5600000e+02   1.5604800e+03
   7.5800000e+02   1.5604800e+03
   7.6000000e+02   1.5485200e+03
   7.6200000e+02   1.5084400e+03
   7.6400000e+02   1.4595600e+03
   7.6600000e+02   1.4105200e+03
   7.6800000e+02   1.3613200e+03
   7.7000000e+02   1.3118800e+03
   7.7200000e+02   1.2624400e+03
   7.7400000e+02   1.2130000e+03
   7.7600000e+02   1.1635600e+03
   7.7800000e+02   1.1148000e+03
   7.8000000e+02   1.0754400e+03
   7.8200000e+02   1.0360800e+03
   7.8400000e+02   9.9672000e+02
   7.8600000e+02   9.5736000e+02
   7.8800000e+02   9.2180000e+02
   7.9000000e+02   8.9080000e+02
   7.9200000e+02   8.5980000e+02
   7.9400000e+02   8.2880000e+02
   7.9600000e+02   8.0296000e+02
   7.9800000e+02   7.8236000e+02
   8.0000000e+02   7.6172000e+02
   8.0200000e+02   7.4384000e+02
   8.0400000e+02   7.3708000e+02
   8.0600000e+02   7.3028000e+02
   8.0800000e+02   7.2352000e+02
   8.1000000e+02   7.1708000e+02
   8.1200000e+02   7.1184000e+02
   8.1400000e+02   7.0660000e+02
   8.1600000e+02   7.0132000e+02
   8.1800000e+02   6.9608000e+02
   8.2000000e+02   6.9376000e+02
   8.2200000e+02   6.9360000e+02
   8.2400000e+02   6.9348000e+02
   8.2600000e+02   6.9332000e+02
   8.2800000e+02   6.9320000e+02
   8.3000000e+02   6.9304000e+02
   8.3200000e+02   6.9292000e+02
   8.3400000e+02   6.9276000e+02
   8.3600000e+02   6.9264000e+02
   8.3800000e+02   6.9248000e+02
   8.4000000e+02   6.9236000e+02
   8.4200000e+02   6.9220000e+02
   8.4400000e+02   6.9196000e+02
   8.4600000e+02   6.9176000e+02
   8.4800000e+02   6.9152000e+02
   8.5000000e+02   6.9132000e+02
   8.5200000e+02   6.9108000e+02
   8.5400000e+02   6.9088000e+02
   8.5600000e+02   6.9064000e+02
   8.5800000e+02   6.9244000e+02
   8.6000000e+02   6.9432000e+02
   8.6200000e+02   6.9620000e+02
   8.6400000e+02   6.9804000e+02
   8.6600000e+02   6.9992000e+02
   8.6800000e+02   7.0180000e+02
   8.7000000e+02   7.0584000e+02
   8.7200000e+02   7.0996000e+02
   8.7400000e+02   7.1408000e+02
   8.7600000e+02   7.1820000e+02
   8.7800000e+02   7.2232000e+02
   8.8000000e+02   7.2644000e+02
   8.8200000e+02   7.2984000e+02
   8.8400000e+02   7.3320000e+02
   8.8600000e+02   7.3660000e+02
   8.8800000e+02   7.3996000e+02
   8.9000000e+02   7.4360000e+02
   8.9200000e+02   7.4724000e+02
   8.9400000e+02   7.5088000e+02
   8.9600000e+02   7.5452000e+02
   8.9800000e+02   7.5816000e+02
   9.0000000e+02   7.6184000e+02
   9.0200000e+02   7.6504000e+02
   9.0400000e+02   7.6744000e+02
   9.0600000e+02   7.6980000e+02
   9.0800000e+02   7.7216000e+02
   9.1000000e+02   7.7456000e+02
   9.1200000e+02   7.7692000e+02
   9.1400000e+02   7.7840000e+02
   9.1600000e+02   7.7804000e+02
   9.1800000e+02   7.7772000e+02
   9.2000000e+02   7.7736000e+02
   9.2200000e+02   7.7704000e+02
   9.2400000e+02   7.7664000e+02
   9.2600000e+02   7.7236000e+02
   9.2800000e+02   7.6808000e+02
   9.3000000e+02   7.6384000e+02
   9.3200000e+02   7.5228000e+02
   9.3400000e+02   7.3756000e+02
   9.3600000e+02   7.2288000e+02
   9.3800000e+02   7.0816000e+02
   9.4000000e+02   6.9344000e+02
   9.4200000e+02   6.7872000e+02
   9.4400000e+02   6.6052000e+02
   9.4600000e+02   6.4108000e+02
   9.4800000e+02   6.2164000e+02
   9.5000000e+02   6.0224000e+02
   9.5200000e+02   5.8340000e+02
   9.5400000e+02   5.6892000e+02
   9.5600000e+02   5.5448000e+02
   9.5800000e+02   5.4004000e+02
   9.6000000e+02   5.2556000e+02
   9.6200000e+02   5.1112000e+02
   9.6400000e+02   4.9536000e+02
   9.6600000e+02   4.7332000e+02
   9.6800000e+02   4.5132000e+02
   9.7000000e+02   4.2932000e+02
   9.7200000e+02   4.1528000e+02
   9.7400000e+02   4.0228000e+02
   9.7600000e+02   3.8928800e+02
   9.7800000e+02   3.7494400e+02
   9.8000000e+02   3.5965600e+02
   9.8200000e+02   3.4437200e+02
   9.8400000e+02   3.2908400e+02
   9.8600000e+02   3.1379600e+02
   9.8800000e+02   2.9850800e+02
   9.9000000e+02   2.8322000e+02
   9.9200000e+02   2.6793200e+02
   9.9400000e+02   2.5264800e+02
   9.9600000e+02   2.3736000e+02
   9.9800000e+02   2.2207200e+02
   1.0000000e+03   2.0678400e+02
