350.00	115.81
351.00	116.01
352.00	115.91
353.00	116.94
354.00	118.46
355.00	115.11
356.00	115.29
357.00	116.67
358.00	118.32
359.00	114.88
360.00	116.90
361.00	118.58
362.00	116.00
363.00	116.91
364.00	116.53
365.00	115.91
366.00	117.91
367.00	117.10
368.00	122.46
369.00	119.90
370.00	116.48
371.00	119.81
372.00	116.02
373.00	115.49
374.00	114.69
375.00	117.99
376.00	117.59
377.00	120.31
378.00	117.75
379.00	118.12
380.00	117.67
381.00	119.29
382.00	118.01
383.00	117.25
384.00	118.69
385.00	117.93
386.00	114.83
387.00	118.81
388.00	118.12
389.00	123.16
390.00	116.42
391.00	116.39
392.00	116.03
393.00	117.61
394.00	114.53
395.00	118.15
396.00	117.67
397.00	131.66
398.00	119.71
399.00	118.00
400.00	117.63
401.00	120.13
402.00	118.22
403.00	119.26
404.00	117.71
405.00	120.12
406.00	119.98
407.00	121.40
408.00	118.51
409.00	118.55
410.00	184.11
411.00	128.74
412.00	116.08
413.00	114.87
414.00	118.40
415.00	118.89
416.00	116.85
417.00	117.98
418.00	118.67
419.00	116.88
420.00	117.53
421.00	117.93
422.00	116.65
423.00	115.78
424.00	118.99
425.00	117.01
426.00	116.52
427.00	119.13
428.00	119.99
429.00	120.14
430.00	113.73
431.00	118.73
432.00	117.67
433.00	167.99
434.00	478.33
435.00	144.00
436.00	123.16
437.00	119.39
438.00	116.92
439.00	119.07
440.00	119.85
441.00	118.56
442.00	121.29
443.00	119.96
444.00	117.56
445.00	120.99
446.00	119.57
447.00	117.02
448.00	116.58
449.00	120.11
450.00	116.76
451.00	118.00
452.00	119.72
453.00	120.24
454.00	117.64
455.00	114.99
456.00	120.90
457.00	120.06
458.00	117.12
459.00	120.00
460.00	118.58
461.00	118.85
462.00	120.11
463.00	120.97
464.00	118.05
465.00	116.45
466.00	118.64
467.00	119.02
468.00	117.93
469.00	117.77
470.00	117.76
471.00	119.99
472.00	117.09
473.00	119.18
474.00	120.51
475.00	117.66
476.00	119.79
477.00	119.01
478.00	119.35
479.00	121.71
480.00	134.98
481.00	129.31
482.00	123.12
483.00	128.58
484.00	132.79
485.00	1966.93
486.00	3952.46
487.00	545.40
488.00	140.49
489.00	126.00
490.00	122.80
491.00	122.97
492.00	122.21
493.00	126.94
494.00	123.00
495.00	119.84
496.00	120.66
497.00	120.84
498.00	120.05
499.00	119.96
500.00	119.42
501.00	121.22
502.00	117.94
503.00	118.61
504.00	120.00
505.00	119.06
506.00	119.90
507.00	118.00
508.00	117.25
509.00	117.98
510.00	118.56
511.00	119.89
512.00	120.09
513.00	115.34
514.00	117.74
515.00	116.67
516.00	120.17
517.00	116.98
518.00	119.56
519.00	117.14
520.00	119.21
521.00	117.84
522.00	118.93
523.00	119.46
524.00	119.55
525.00	116.25
526.00	118.97
527.00	119.03
528.00	118.19
529.00	119.80
530.00	116.58
531.00	116.93
532.00	116.98
533.00	117.99
534.00	117.09
535.00	116.98
536.00	118.28
537.00	120.02
538.00	120.21
539.00	120.24
540.00	121.18
541.00	126.27
542.00	126.23
543.00	131.80
544.00	128.37
545.00	130.84
546.00	134.81
547.00	122.81
548.00	122.93
549.00	123.03
550.00	123.61
551.00	121.91
552.00	119.76
553.00	121.95
554.00	122.01
555.00	116.77
556.00	119.51
557.00	115.70
558.00	117.40
559.00	118.53
560.00	117.97
561.00	119.01
562.00	119.36
563.00	119.21
564.00	118.10
565.00	118.14
566.00	120.01
567.00	118.13
568.00	122.26
569.00	123.22
570.00	125.37
571.00	120.55
572.00	123.33
573.00	128.17
574.00	122.47
575.00	123.36
576.00	125.75
577.00	128.52
578.00	131.26
579.00	128.94
580.00	133.55
581.00	138.58
582.00	131.17
583.00	131.45
584.00	127.45
585.00	124.29
586.00	123.06
587.00	130.69
588.00	129.82
589.00	128.55
590.00	127.35
591.00	125.37
592.00	126.99
593.00	129.76
594.00	129.99
595.00	125.94
596.00	123.39
597.00	128.53
598.00	127.58
599.00	123.20
600.00	120.28
601.00	126.18
602.00	129.88
603.00	128.81
604.00	122.25
605.00	122.15
606.00	122.23
607.00	123.82
608.00	126.51
609.00	128.13
610.00	131.84
611.00	138.67
612.00	139.51
613.00	132.60
614.00	127.26
615.00	132.81
616.00	129.22
617.00	121.82
618.00	125.08
619.00	124.91
620.00	124.32
621.00	124.38
622.00	126.41
623.00	127.53
624.00	123.52
625.00	121.12
626.00	118.96
627.00	122.96
628.00	125.01
629.00	125.02
630.00	124.25
631.00	121.42
632.00	125.68
633.00	126.14
634.00	121.60
635.00	124.11
636.00	125.15
637.00	122.97
638.00	122.31
639.00	124.00
640.00	125.06
641.00	123.41
642.00	124.45
643.00	127.43
644.00	123.99
645.00	129.37
646.00	126.54
647.00	129.15
648.00	131.67
649.00	130.97
650.00	132.74
651.00	173.79
652.00	293.55
653.00	199.94
654.00	261.32
655.00	3763.52
656.00	4103.87
657.00	4083.02
658.00	2851.29
659.00	555.26
660.00	190.58
661.00	148.60
662.00	136.46
663.00	130.66
664.00	130.15
665.00	126.27
666.00	126.17
667.00	123.81
668.00	120.99
669.00	121.99
670.00	121.96
671.00	120.08
672.00	120.13
673.00	120.86
674.00	120.84
675.00	118.03
676.00	119.83
677.00	117.97
678.00	118.19
679.00	119.33
680.00	118.35
681.00	115.97
682.00	118.22
683.00	119.23
684.00	117.12
685.00	115.47
686.00	117.12
687.00	115.45
688.00	115.93
689.00	115.89
690.00	113.87
691.00	118.02
692.00	114.88
693.00	114.67
694.00	114.98
695.00	118.28
696.00	115.22
697.00	113.99
698.00	116.14
699.00	115.13
700.00	117.02
701.00	116.04
702.00	116.03
703.00	114.95
704.00	114.04
705.00	113.03
706.00	115.97
707.00	115.03
708.00	115.01
709.00	113.04
710.00	113.05
711.00	114.07
712.00	117.99
713.00	115.92
714.00	113.99
715.00	115.93
716.00	114.93
717.00	115.09
718.00	113.84
719.00	113.99
720.00	116.97
721.00	114.07
722.00	115.05
723.00	117.12
724.00	117.63
725.00	114.73
726.00	114.59
727.00	116.74
728.00	116.13
729.00	115.42
730.00	113.98
731.00	116.56
732.00	112.36
733.00	114.43
734.00	116.18
735.00	116.18
736.00	116.46
737.00	117.21
738.00	115.12
739.00	117.65
740.00	116.21
741.00	113.22
742.00	113.05
743.00	114.11
744.00	116.97
745.00	117.01
746.00	117.96
747.00	116.03
748.00	115.02
749.00	114.99
750.00	113.91
751.00	115.34
752.00	116.18
753.00	112.21
754.00	115.19
755.00	116.45
756.00	114.86
757.00	113.77
758.00	113.25
759.00	113.95
760.00	116.05
761.00	111.02
762.00	115.84
763.00	115.68
764.00	113.81
765.00	113.59
766.00	115.07
767.00	114.21
768.00	116.94
769.00	116.26
770.00	115.26
771.00	113.02
772.00	115.00
773.00	116.14
774.00	113.19
775.00	113.78
776.00	119.26
777.00	144.24
778.00	121.92
779.00	120.19
780.00	115.94
781.00	115.17
782.00	113.98
783.00	112.09
784.00	115.13
785.00	113.67
786.00	115.05
787.00	113.63
788.00	113.86
789.00	114.05
790.00	114.02
791.00	114.09
792.00	113.90
793.00	113.16
794.00	114.51
795.00	113.16
796.00	113.25
797.00	114.88
798.00	113.98
799.00	114.10
800.00	113.70
801.00	117.34
802.00	115.75
803.00	114.85
804.00	114.19
805.00	113.01
806.00	113.76
807.00	114.31
808.00	116.43
809.00	113.68
810.00	114.95
811.00	113.02
812.00	113.77
813.00	116.81
814.00	113.65
815.00	112.60
816.00	113.31
817.00	114.01
818.00	113.94
819.00	112.88
820.00	115.19
821.00	116.55
822.00	111.20
823.00	114.05
824.00	113.33
825.00	113.51
826.00	114.29
827.00	113.72
828.00	113.01
829.00	113.97
830.00	112.88
831.00	117.30
832.00	113.12
833.00	114.00
834.00	111.37
835.00	114.69
836.00	113.45
837.00	116.39
838.00	113.01
839.00	113.39
840.00	113.86
841.00	111.88
842.00	113.07
843.00	115.88
844.00	134.97
845.00	121.22
846.00	117.09
847.00	115.02
848.00	113.91
849.00	114.09
850.00	113.39
851.00	112.03
852.00	114.89
853.00	115.70
854.00	114.06
855.00	112.02
856.00	112.28
857.00	113.83
858.00	111.99
859.00	115.18
860.00	112.55
861.00	112.50
862.00	114.50
863.00	112.99
864.00	113.76
865.00	115.14
866.00	113.86
867.00	113.92
868.00	112.60
869.00	112.42
870.00	114.85
871.00	114.92
872.00	114.67
873.00	113.30
874.00	112.99
875.00	113.11
876.00	115.83
877.00	113.93
878.00	113.38
879.00	113.32
880.00	113.93
881.00	112.10
882.00	114.54
883.00	116.54
884.00	112.02
885.00	114.22
886.00	118.56
887.00	115.11
888.00	112.73
889.00	114.07
890.00	114.06
891.00	110.85
892.00	114.74
893.00	114.14
894.00	114.95
895.00	115.22
896.00	112.33
897.00	112.04
898.00	115.75
899.00	113.17
900.00	114.12
901.00	111.13
902.00	113.02
903.00	113.45
904.00	114.16
905.00	116.01
906.00	111.82
907.00	115.43
908.00	114.99
909.00	111.82
910.00	114.09
911.00	112.08
912.00	112.38
913.00	114.95
914.00	114.39
915.00	114.54
916.00	112.84
917.00	113.29
918.00	116.09
919.00	113.01
920.00	115.57
921.00	112.98
922.00	116.53
923.00	110.92
924.00	114.73
925.00	117.22
926.00	115.99
927.00	115.69
928.00	112.00
929.00	116.22
930.00	115.04
931.00	115.81
932.00	113.25
933.00	114.00
934.00	110.80
935.00	117.01
936.00	113.66
937.00	112.99
938.00	113.18
939.00	112.03
940.00	115.16
941.00	114.96
942.00	115.99
943.00	114.02
944.00	112.81
945.00	115.25
946.00	111.77
947.00	115.20
948.00	112.15
949.00	114.02
950.00	113.23
951.00	111.65
952.00	114.73
953.00	112.80
954.00	112.95
955.00	114.99
956.00	113.15
957.00	112.98
958.00	114.67
959.00	115.47
960.00	112.27
961.00	114.34
962.00	114.73
963.00	118.01
964.00	113.26
965.00	114.80
966.00	112.23
967.00	114.94
968.00	113.12
969.00	113.93
970.00	113.03
971.00	114.42
972.00	115.01
973.00	114.95
974.00	112.03
975.00	113.93
976.00	113.90
977.00	112.19
978.00	113.23
979.00	113.12
980.00	110.41
981.00	113.98
982.00	113.64
983.00	115.08
984.00	114.20
985.00	113.98
986.00	110.01
987.00	115.09
988.00	114.04
989.00	114.83
990.00	114.56
991.00	114.75
992.00	113.40
993.00	113.01
994.00	114.21
995.00	113.93
996.00	111.04
997.00	114.92
998.00	113.25
999.00	113.16
1000.00	112.89
