  5.0000000e+002  1.1680796e+002
  5.0100000e+002  1.1775969e+002
  5.0200000e+002  1.1871143e+002
  5.0300000e+002  1.1966316e+002
  5.0400000e+002  1.2061490e+002
  5.0500000e+002  1.2156664e+002
  5.0600000e+002  1.2251837e+002
  5.0700000e+002  1.2347011e+002
  5.0800000e+002  1.2442184e+002
  5.0900000e+002  1.2537358e+002
  5.1000000e+002  1.2632532e+002
  5.1100000e+002  1.2727705e+002
  5.1200000e+002  1.2822879e+002
  5.1300000e+002  1.2918052e+002
  5.1400000e+002  1.3013226e+002
  5.1500000e+002  1.3108399e+002
  5.1600000e+002  1.3203573e+002
  5.1700000e+002  1.3298747e+002
  5.1800000e+002  1.3393920e+002
  5.1900000e+002  1.3614176e+002
  5.2000000e+002  1.3925400e+002
  5.2100000e+002  1.4236623e+002
  5.2200000e+002  1.4547847e+002
  5.2300000e+002  1.4859070e+002
  5.2400000e+002  1.5170294e+002
  5.2500000e+002  1.5481518e+002
  5.2600000e+002  1.5792741e+002
  5.2700000e+002  1.6103965e+002
  5.2800000e+002  1.6415189e+002
  5.2900000e+002  1.6726412e+002
  5.3000000e+002  1.7037636e+002
  5.3100000e+002  1.7348859e+002
  5.3200000e+002  1.7660083e+002
  5.3300000e+002  1.7971307e+002
  5.3400000e+002  1.8282530e+002
  5.3500000e+002  1.8593754e+002
  5.3600000e+002  1.8904978e+002
  5.3700000e+002  1.9216201e+002
  5.3800000e+002  1.9527425e+002
  5.3900000e+002  1.9838648e+002
  5.4000000e+002  2.0149872e+002
  5.4100000e+002  2.0461096e+002
  5.4200000e+002  2.0772319e+002
  5.4300000e+002  2.1083543e+002
  5.4400000e+002  2.1394767e+002
  5.4500000e+002  2.1705990e+002
  5.4600000e+002  2.2017214e+002
  5.4700000e+002  2.2328437e+002
  5.4800000e+002  2.2639661e+002
  5.4900000e+002  2.2950885e+002
  5.5000000e+002  2.3262108e+002
  5.5100000e+002  2.3573332e+002
  5.5200000e+002  2.3884556e+002
  5.5300000e+002  2.4195779e+002
  5.5400000e+002  2.4507003e+002
  5.5500000e+002  2.4818227e+002
  5.5600000e+002  2.5129450e+002
  5.5700000e+002  2.5440674e+002
  5.5800000e+002  2.5683801e+002
  5.5900000e+002  2.5348090e+002
  5.6000000e+002  2.5012380e+002
  5.6100000e+002  2.4676669e+002
  5.6200000e+002  2.4340958e+002
  5.6300000e+002  2.4005248e+002
  5.6400000e+002  2.3669537e+002
  5.6500000e+002  2.3333826e+002
  5.6600000e+002  2.2998116e+002
  5.6700000e+002  2.2662405e+002
  5.6800000e+002  2.2326694e+002
  5.6900000e+002  2.1990984e+002
  5.7000000e+002  2.1655273e+002
  5.7100000e+002  2.1319562e+002
  5.7200000e+002  2.0983852e+002
  5.7300000e+002  2.0648141e+002
  5.7400000e+002  2.0312430e+002
  5.7500000e+002  1.9976720e+002
  5.7600000e+002  1.9641009e+002
  5.7700000e+002  1.9305298e+002
  5.7800000e+002  1.8969588e+002
  5.7900000e+002  1.8633877e+002
  5.8000000e+002  1.8298166e+002
  5.8100000e+002  1.7962456e+002
  5.8200000e+002  1.7626745e+002
  5.8300000e+002  1.7291034e+002
  5.8400000e+002  1.6955324e+002
  5.8500000e+002  1.6619613e+002
  5.8600000e+002  1.6283902e+002
  5.8700000e+002  1.5948192e+002
  5.8800000e+002  1.5612481e+002
  5.8900000e+002  1.5276770e+002
  5.9000000e+002  1.4855845e+002
  5.9100000e+002  1.4358227e+002
  5.9200000e+002  1.3860610e+002
  5.9300000e+002  1.3362992e+002
  5.9400000e+002  1.2865375e+002
  5.9500000e+002  1.2367757e+002
  5.9600000e+002  1.1870140e+002
  5.9700000e+002  1.1372522e+002
  5.9800000e+002  1.0874905e+002
  5.9900000e+002  1.0377287e+002
  6.0000000e+002  9.8796699e+001
  6.0100000e+002  9.3820524e+001
  6.0200000e+002  8.8844349e+001
  6.0300000e+002  8.3868174e+001
  6.0400000e+002  7.8891999e+001
  6.0500000e+002  7.3915824e+001
  6.0600000e+002  6.8939649e+001
  6.0700000e+002  6.3963474e+001
  6.0800000e+002  5.8987299e+001
  6.0900000e+002  5.4011124e+001
  6.1000000e+002  4.9034948e+001
  6.1100000e+002  4.6096743e+001
  6.1200000e+002  4.5422987e+001
  6.1300000e+002  4.4749231e+001
  6.1400000e+002  4.4075475e+001
  6.1500000e+002  4.3401719e+001
  6.1600000e+002  4.2727963e+001
  6.1700000e+002  4.2054207e+001
  6.1800000e+002  4.1380452e+001
  6.1900000e+002  4.0706696e+001
  6.2000000e+002  4.0032940e+001
  6.2100000e+002  3.9359184e+001
  6.2200000e+002  3.8685428e+001
  6.2300000e+002  3.8011672e+001
  6.2400000e+002  3.7337916e+001
  6.2500000e+002  3.6664160e+001
  6.2600000e+002  3.5990404e+001
  6.2700000e+002  3.5316648e+001
  6.2800000e+002  3.4642892e+001
  6.2900000e+002  3.3969136e+001
  6.3000000e+002  3.3295380e+001
  6.3100000e+002  3.2621624e+001
  6.3200000e+002  3.1947868e+001
  6.3300000e+002  3.1274112e+001
  6.3400000e+002  3.0600356e+001
  6.3500000e+002  2.9926600e+001
  6.3600000e+002  2.9252844e+001
  6.3700000e+002  2.8579088e+001
  6.3800000e+002  2.7905332e+001
  6.3900000e+002  2.7231576e+001
  6.4000000e+002  2.6557820e+001
  6.4100000e+002  2.5884064e+001
  6.4200000e+002  2.5210308e+001
  6.4300000e+002  2.4536552e+001
  6.4400000e+002  2.3862796e+001
  6.4500000e+002  2.3189041e+001
  6.4600000e+002  2.2515285e+001
  6.4700000e+002  2.1841529e+001
  6.4800000e+002  2.1167773e+001
  6.4900000e+002  2.0494017e+001
  6.5000000e+002  1.9820261e+001
  6.5100000e+002  1.9146505e+001
  6.5200000e+002  1.8472749e+001
  6.5300000e+002  1.7976805e+001
  6.5400000e+002  1.7785684e+001
  6.5500000e+002  1.7594562e+001
  6.5600000e+002  1.7403441e+001
  6.5700000e+002  1.7212319e+001
  6.5800000e+002  1.7021198e+001
  6.5900000e+002  1.6830076e+001
  6.6000000e+002  1.6638955e+001
  6.6100000e+002  1.6447834e+001
  6.6200000e+002  1.6256712e+001
  6.6300000e+002  1.6065591e+001
  6.6400000e+002  1.5874469e+001
  6.6500000e+002  1.5683348e+001
  6.6600000e+002  1.5492226e+001
  6.6700000e+002  1.5301105e+001
  6.6800000e+002  1.5109983e+001
  6.6900000e+002  1.4918862e+001
  6.7000000e+002  1.4727741e+001
  6.7100000e+002  1.4536619e+001
  6.7200000e+002  1.4345498e+001
  6.7300000e+002  1.4154376e+001
  6.7400000e+002  1.3963255e+001
  6.7500000e+002  1.3772133e+001
  6.7600000e+002  1.3581012e+001
  6.7700000e+002  1.3389890e+001
  6.7800000e+002  1.3198769e+001
  6.7900000e+002  1.3007648e+001
  6.8000000e+002  1.2816526e+001
  6.8100000e+002  1.2625405e+001
  6.8200000e+002  1.2434283e+001
  6.8300000e+002  1.2243162e+001
  6.8400000e+002  1.2052040e+001
  6.8500000e+002  1.1860919e+001
  6.8600000e+002  1.1669797e+001
  6.8700000e+002  1.1478676e+001
  6.8800000e+002  1.1287555e+001
  6.8900000e+002  1.1096433e+001
  6.9000000e+002  1.0905312e+001
  6.9100000e+002  1.0714190e+001
  6.9200000e+002  1.0523069e+001
  6.9300000e+002  1.0331947e+001
  6.9400000e+002  1.0140826e+001
  6.9500000e+002  9.9811929e+000
  6.9600000e+002  9.9097263e+000
  6.9700000e+002  9.8382597e+000
  6.9800000e+002  9.7667931e+000
  6.9900000e+002  9.6953265e+000
  7.0000000e+002  9.6238599e+000
  7.0100000e+002  9.5523933e+000
  7.0200000e+002  9.4809267e+000
  7.0300000e+002  9.4094601e+000
  7.0400000e+002  9.3379936e+000
  7.0500000e+002  9.2665270e+000
  7.0600000e+002  9.1950604e+000
  7.0700000e+002  9.1235938e+000
  7.0800000e+002  9.0521272e+000
  7.0900000e+002  8.9806606e+000
  7.1000000e+002  8.9091940e+000
  7.1100000e+002  8.8377274e+000
  7.1200000e+002  8.7662608e+000
  7.1300000e+002  8.6947943e+000
  7.1400000e+002  8.6233277e+000
  7.1500000e+002  8.5518611e+000
  7.1600000e+002  8.4803945e+000
  7.1700000e+002  8.4089279e+000
  7.1800000e+002  8.3374613e+000
  7.1900000e+002  8.2659947e+000
  7.2000000e+002  8.1945281e+000
  7.2100000e+002  8.1230615e+000
  7.2200000e+002  8.0515950e+000
  7.2300000e+002  7.9801284e+000
  7.2400000e+002  7.9086618e+000
  7.2500000e+002  7.8371952e+000
  7.2600000e+002  7.7657286e+000
  7.2700000e+002  7.6942620e+000
  7.2800000e+002  7.6227954e+000
  7.2900000e+002  7.5513288e+000
  7.3000000e+002  7.4798622e+000
  7.3100000e+002  7.4083957e+000
  7.3200000e+002  7.3369291e+000
  7.3300000e+002  7.2654625e+000
  7.3400000e+002  7.1939959e+000
  7.3500000e+002  7.1225293e+000
  7.3600000e+002  7.0510627e+000
  7.3700000e+002  6.9795961e+000
  7.3800000e+002  6.9081295e+000
  7.3900000e+002  6.8366629e+000
  7.4000000e+002  6.7651964e+000
  7.4100000e+002  6.6937298e+000
  7.4200000e+002  6.6222632e+000
  7.4300000e+002  6.6382308e+000
  7.4400000e+002  6.6644844e+000
  7.4500000e+002  6.6907381e+000
  7.4600000e+002  6.7169917e+000
  7.4700000e+002  6.7432453e+000
  7.4800000e+002  6.7694990e+000
  7.4900000e+002  6.7957526e+000
  7.5000000e+002  6.8220063e+000
  7.5100000e+002  6.8482599e+000
  7.5200000e+002  6.8745135e+000
  7.5300000e+002  6.9007672e+000
  7.5400000e+002  6.9270208e+000
  7.5500000e+002  6.9532745e+000
  7.5600000e+002  6.9795281e+000
  7.5700000e+002  7.0057817e+000
  7.5800000e+002  7.0320354e+000
  7.5900000e+002  7.0582890e+000
  7.6000000e+002  7.0845427e+000
  7.6100000e+002  7.1107963e+000
  7.6200000e+002  7.1370500e+000
  7.6300000e+002  7.1633036e+000
  7.6400000e+002  7.1895572e+000
  7.6500000e+002  7.2158109e+000
  7.6600000e+002  7.2420645e+000
  7.6700000e+002  7.2683182e+000
  7.6800000e+002  7.2945718e+000
  7.6900000e+002  7.3208254e+000
  7.7000000e+002  7.3470791e+000
  7.7100000e+002  7.3733327e+000
  7.7200000e+002  7.3995864e+000
  7.7300000e+002  7.4258400e+000
  7.7400000e+002  7.3977781e+000
  7.7500000e+002  7.2520327e+000
  7.7600000e+002  7.1062873e+000
  7.7700000e+002  6.9605419e+000
  7.7800000e+002  6.8147965e+000
  7.7900000e+002  6.6690512e+000
  7.8000000e+002  6.5233058e+000
  7.8100000e+002  6.3775604e+000
  7.8200000e+002  6.2318150e+000
  7.8300000e+002  6.0860696e+000
  7.8400000e+002  5.9403242e+000
  7.8500000e+002  5.7945789e+000
  7.8600000e+002  5.6488335e+000
  7.8700000e+002  5.5030881e+000
  7.8800000e+002  5.3573427e+000
  7.8900000e+002  5.2115973e+000
  7.9000000e+002  5.0658520e+000
  7.9100000e+002  4.9201066e+000
  7.9200000e+002  4.7743612e+000
  7.9300000e+002  4.6286158e+000
  7.9400000e+002  4.4828704e+000
  7.9500000e+002  4.3653115e+000
  7.9600000e+002  4.3266739e+000
  7.9700000e+002  4.2880362e+000
  7.9800000e+002  4.2493985e+000
  7.9900000e+002  4.2107609e+000
  8.0000000e+002  4.1721232e+000
  8.0100000e+002  4.1334855e+000
  8.0200000e+002  4.0948479e+000
  8.0300000e+002  4.0562102e+000
  8.0400000e+002  4.0175726e+000
  8.0500000e+002  3.9789349e+000
  8.0600000e+002  3.9402972e+000
  8.0700000e+002  3.9016596e+000
  8.0800000e+002  3.8630219e+000
  8.0900000e+002  3.8243842e+000
  8.1000000e+002  3.7857466e+000
  8.1100000e+002  3.7471089e+000
  8.1200000e+002  3.7084713e+000
  8.1300000e+002  3.6698336e+000
  8.1400000e+002  3.6311959e+000
  8.1500000e+002  3.5925583e+000
  8.1600000e+002  3.5539206e+000
  8.1700000e+002  3.5152829e+000
  8.1800000e+002  3.4766453e+000
  8.1900000e+002  3.4380076e+000
  8.2000000e+002  3.3993700e+000
  8.2100000e+002  3.3607323e+000
  8.2200000e+002  3.3220946e+000
  8.2300000e+002  3.2834570e+000
  8.2400000e+002  3.2597422e+000
  8.2500000e+002  3.2683602e+000
  8.2600000e+002  3.2769782e+000
  8.2700000e+002  3.2855961e+000
  8.2800000e+002  3.2942141e+000
  8.2900000e+002  3.3028321e+000
  8.3000000e+002  3.3114501e+000
  8.3100000e+002  3.3200681e+000
  8.3200000e+002  3.3286861e+000
  8.3300000e+002  3.3373041e+000
  8.3400000e+002  3.3459221e+000
  8.3500000e+002  3.3545400e+000
  8.3600000e+002  3.3631580e+000
  8.3700000e+002  3.3717760e+000
  8.3800000e+002  3.3803940e+000
  8.3900000e+002  3.3890120e+000
  8.4000000e+002  3.3976300e+000
  8.4100000e+002  3.4062480e+000
  8.4200000e+002  3.4148660e+000
  8.4300000e+002  3.4234840e+000
  8.4400000e+002  3.4321019e+000
  8.4500000e+002  3.4407199e+000
  8.4600000e+002  3.4493379e+000
  8.4700000e+002  3.4579559e+000
  8.4800000e+002  3.4665739e+000
  8.4900000e+002  3.4751919e+000
  8.5000000e+002  3.4838099e+000
  8.5100000e+002  3.4924279e+000
  8.5200000e+002  3.5010459e+000
  8.5300000e+002  3.5096638e+000
  8.5400000e+002  3.5182818e+000
  8.5500000e+002  3.5268998e+000
  8.5600000e+002  3.5355178e+000
  8.5700000e+002  3.5441358e+000
  8.5800000e+002  3.5527538e+000
  8.5900000e+002  3.5613718e+000
  8.6000000e+002  3.5699898e+000
  8.6100000e+002  3.5786078e+000
  8.6200000e+002  3.5872257e+000
  8.6300000e+002  3.5958437e+000
  8.6400000e+002  3.6044617e+000
  8.6500000e+002  3.6130797e+000
  8.6600000e+002  3.6216977e+000
  8.6700000e+002  3.6303157e+000
  8.6800000e+002  3.6389337e+000
  8.6900000e+002  3.6475517e+000
  8.7000000e+002  3.6561696e+000
  8.7100000e+002  3.6647876e+000
  8.7200000e+002  3.6865484e+000
  8.7300000e+002  3.7090393e+000
  8.7400000e+002  3.7315301e+000
  8.7500000e+002  3.7540210e+000
  8.7600000e+002  3.7765119e+000
  8.7700000e+002  3.7990028e+000
  8.7800000e+002  3.8214936e+000
  8.7900000e+002  3.8439845e+000
  8.8000000e+002  3.8664754e+000
  8.8100000e+002  3.8889662e+000
  8.8200000e+002  3.9114571e+000
  8.8300000e+002  3.9339480e+000
  8.8400000e+002  3.9564389e+000
  8.8500000e+002  3.9789297e+000
  8.8600000e+002  4.0014206e+000
  8.8700000e+002  4.0239115e+000
  8.8800000e+002  4.0464024e+000
  8.8900000e+002  4.0688932e+000
  8.9000000e+002  4.0913841e+000
  8.9100000e+002  4.1138750e+000
  8.9200000e+002  4.1363659e+000
  8.9300000e+002  4.1588567e+000
  8.9400000e+002  4.1813476e+000
  8.9500000e+002  4.2038385e+000
  8.9600000e+002  4.2263294e+000
  8.9700000e+002  4.2488202e+000
  8.9800000e+002  4.2713111e+000
  8.9900000e+002  4.2938020e+000
  9.0000000e+002  4.3162929e+000
  9.0100000e+002  4.3387837e+000
  9.0200000e+002  4.3612746e+000
  9.0300000e+002  4.3662757e+000
  9.0400000e+002  4.3412942e+000
  9.0500000e+002  4.3163126e+000
  9.0600000e+002  4.2913311e+000
  9.0700000e+002  4.2663496e+000
  9.0800000e+002  4.2413680e+000
  9.0900000e+002  4.2163865e+000
  9.1000000e+002  4.1914050e+000
  9.1100000e+002  4.1664234e+000
  9.1200000e+002  4.1414419e+000
  9.1300000e+002  4.1164604e+000
  9.1400000e+002  4.0914789e+000
  9.1500000e+002  4.0664973e+000
  9.1600000e+002  4.0415158e+000
  9.1700000e+002  4.0165343e+000
  9.1800000e+002  3.9915527e+000
  9.1900000e+002  3.9665712e+000
  9.2000000e+002  3.9415897e+000
  9.2100000e+002  3.9166081e+000
  9.2200000e+002  3.8916266e+000
  9.2300000e+002  3.8666451e+000
  9.2400000e+002  3.8416635e+000
  9.2500000e+002  3.8166820e+000
  9.2600000e+002  3.7917005e+000
  9.2700000e+002  3.7667189e+000
  9.2800000e+002  3.7417374e+000
  9.2900000e+002  3.7167559e+000
  9.3000000e+002  3.6917743e+000
  9.3100000e+002  3.6667928e+000
  9.3200000e+002  3.6418113e+000
  9.3300000e+002  3.6168297e+000
  9.3400000e+002  3.5918482e+000
  9.3500000e+002  3.5668667e+000
  9.3600000e+002  3.5418851e+000
  9.3700000e+002  3.5169036e+000
  9.3800000e+002  3.4919221e+000
  9.3900000e+002  3.4669406e+000
  9.4000000e+002  3.4256601e+000
  9.4100000e+002  3.3697108e+000
  9.4200000e+002  3.3137615e+000
  9.4300000e+002  3.2578122e+000
  9.4400000e+002  3.2018629e+000
  9.4500000e+002  3.1459136e+000
  9.4600000e+002  3.0899643e+000
  9.4700000e+002  3.0340150e+000
  9.4800000e+002  2.9780657e+000
  9.4900000e+002  2.9221164e+000
  9.5000000e+002  2.8661671e+000
  9.5100000e+002  2.8102178e+000
  9.5200000e+002  2.7542685e+000
  9.5300000e+002  2.6983192e+000
  9.5400000e+002  2.6423700e+000
  9.5500000e+002  2.5864207e+000
  9.5600000e+002  2.5304714e+000
  9.5700000e+002  2.4745221e+000
  9.5800000e+002  2.4190568e+000
  9.5900000e+002  2.3677064e+000
  9.6000000e+002  2.3163559e+000
  9.6100000e+002  2.2650054e+000
  9.6200000e+002  2.2136549e+000
  9.6300000e+002  2.1623044e+000
  9.6400000e+002  2.1109540e+000
  9.6500000e+002  2.0596035e+000
  9.6600000e+002  2.0082530e+000
  9.6700000e+002  1.9569025e+000
  9.6800000e+002  1.9055520e+000
  9.6900000e+002  1.8542015e+000
  9.7000000e+002  1.8028511e+000
  9.7100000e+002  1.7515006e+000
  9.7200000e+002  1.7001501e+000
  9.7300000e+002  1.6487996e+000
  9.7400000e+002  1.5974491e+000
  9.7500000e+002  1.5460987e+000
  9.7600000e+002  1.4947482e+000
  9.7700000e+002  1.4433977e+000
  9.7800000e+002  1.3920472e+000
  9.7900000e+002  1.3428643e+000
  9.8000000e+002  1.3326987e+000
  9.8100000e+002  1.3225331e+000
  9.8200000e+002  1.3123676e+000
  9.8300000e+002  1.3022020e+000
  9.8400000e+002  1.2920364e+000
  9.8500000e+002  1.2818709e+000
  9.8600000e+002  1.2717053e+000
  9.8700000e+002  1.2615397e+000
  9.8800000e+002  1.2513741e+000
  9.8900000e+002  1.2412086e+000
  9.9000000e+002  1.2310430e+000
  9.9100000e+002  1.2208774e+000
  9.9200000e+002  1.2107118e+000
  9.9300000e+002  1.2005463e+000
  9.9400000e+002  1.1903807e+000
  9.9500000e+002  1.1802151e+000
  9.9600000e+002  1.1700496e+000
  9.9700000e+002  1.1598840e+000
  9.9800000e+002  1.1497184e+000
  9.9900000e+002  1.1395528e+000
  1.0000000e+003  1.1293873e+000
  1.0010000e+003  1.1192217e+000
  1.0020000e+003  1.1090561e+000
  1.0030000e+003  1.0988906e+000
  1.0040000e+003  1.0887250e+000
  1.0050000e+003  1.0785594e+000
  1.0060000e+003  1.0683938e+000
  1.0070000e+003  1.0582283e+000
  1.0080000e+003  1.0480627e+000
  1.0090000e+003  1.0378971e+000
  1.0100000e+003  1.0277315e+000
  1.0110000e+003  1.0175660e+000
  1.0120000e+003  1.0074004e+000
  1.0130000e+003  9.9723483e-001
  1.0140000e+003  9.8706926e-001
  1.0150000e+003  9.7690368e-001
  1.0160000e+003  9.6673811e-001
  1.0170000e+003  9.5657254e-001
  1.0180000e+003  9.4640697e-001
  1.0190000e+003  9.3624139e-001
  1.0200000e+003  9.2607582e-001
  1.0210000e+003  9.1591025e-001
  1.0220000e+003  9.0574468e-001
  1.0230000e+003  8.9557910e-001
  1.0240000e+003  8.8702160e-001
  1.0250000e+003  8.8194805e-001
  1.0260000e+003  8.7687451e-001
  1.0270000e+003  8.7180097e-001
  1.0280000e+003  8.6672742e-001
  1.0290000e+003  8.6165388e-001
  1.0300000e+003  8.5658034e-001
  1.0310000e+003  8.5150679e-001
  1.0320000e+003  8.4643325e-001
  1.0330000e+003  8.4135971e-001
  1.0340000e+003  8.3628616e-001
  1.0350000e+003  8.3121262e-001
  1.0360000e+003  8.2613908e-001
  1.0370000e+003  8.2106553e-001
  1.0380000e+003  8.1599199e-001
  1.0390000e+003  8.1091845e-001
  1.0400000e+003  8.0584490e-001
  1.0410000e+003  8.0077136e-001
  1.0420000e+003  7.9569782e-001
  1.0430000e+003  7.9062427e-001
  1.0440000e+003  7.8555073e-001
  1.0450000e+003  7.8047719e-001
  1.0460000e+003  7.7540364e-001
  1.0470000e+003  7.7033010e-001
  1.0480000e+003  7.6525656e-001
  1.0490000e+003  7.6018301e-001
  1.0500000e+003  7.5510947e-001
  1.0510000e+003  7.5003593e-001
  1.0520000e+003  7.4496238e-001
  1.0530000e+003  7.3988884e-001
  1.0540000e+003  7.3481530e-001
  1.0550000e+003  7.2974175e-001
  1.0560000e+003  7.2466821e-001
  1.0570000e+003  7.1959467e-001
  1.0580000e+003  7.1452112e-001
  1.0590000e+003  7.0944758e-001
  1.0600000e+003  7.0437404e-001
  1.0610000e+003  6.9982644e-001
  1.0620000e+003  6.9586319e-001
  1.0630000e+003  6.9189994e-001
  1.0640000e+003  6.8793669e-001
  1.0650000e+003  6.8397344e-001
  1.0660000e+003  6.8001019e-001
  1.0670000e+003  6.7604694e-001
  1.0680000e+003  6.7208369e-001
  1.0690000e+003  6.6812044e-001
  1.0700000e+003  6.6415719e-001
  1.0710000e+003  6.6019393e-001
  1.0720000e+003  6.5623068e-001
  1.0730000e+003  6.5226743e-001
  1.0740000e+003  6.4830418e-001
  1.0750000e+003  6.4434093e-001
  1.0760000e+003  6.4037768e-001
  1.0770000e+003  6.3641443e-001
  1.0780000e+003  6.3245118e-001
  1.0790000e+003  6.2848793e-001
  1.0800000e+003  6.2452468e-001
  1.0810000e+003  6.2056143e-001
  1.0820000e+003  6.1659818e-001
  1.0830000e+003  6.1263493e-001
  1.0840000e+003  6.0867168e-001
  1.0850000e+003  6.0470843e-001
  1.0860000e+003  6.0074518e-001
  1.0870000e+003  5.9678193e-001
  1.0880000e+003  5.9281868e-001
  1.0890000e+003  5.8885543e-001
  1.0900000e+003  5.8489218e-001
  1.0910000e+003  5.8092893e-001
  1.0920000e+003  5.7696568e-001
  1.0930000e+003  5.7300243e-001
  1.0940000e+003  5.6903918e-001
  1.0950000e+003  5.6507593e-001
  1.0960000e+003  5.6111268e-001
  1.0970000e+003  5.5714943e-001
  1.0980000e+003  5.5318618e-001
  1.0990000e+003  5.4922293e-001
  1.1000000e+003  5.4525968e-001
  1.1010000e+003  5.4129642e-001
  1.1020000e+003  5.3733317e-001
  1.1030000e+003  5.3336992e-001
  1.1040000e+003  5.2940667e-001
  1.1050000e+003  5.2544342e-001
  1.1060000e+003  5.2148017e-001
  1.1070000e+003  5.1751692e-001
  1.1080000e+003  5.1355367e-001
  1.1090000e+003  5.0959042e-001
  1.1100000e+003  5.0562717e-001
  1.1110000e+003  5.0166392e-001
  1.1120000e+003  4.9770067e-001
  1.1130000e+003  4.9373742e-001
  1.1140000e+003  4.8977417e-001
  1.1150000e+003  4.8581092e-001
  1.1160000e+003  4.8184767e-001
  1.1170000e+003  4.7788442e-001
  1.1180000e+003  4.7392117e-001
  1.1190000e+003  4.6995792e-001
  1.1200000e+003  4.6599467e-001
  1.1210000e+003  4.6203142e-001
  1.1220000e+003  4.5806817e-001
  1.1230000e+003  4.5410492e-001
  1.1240000e+003  4.5014167e-001
  1.1250000e+003  4.4617842e-001
  1.1260000e+003  4.4221517e-001
  1.1270000e+003  4.3825192e-001
  1.1280000e+003  4.3428867e-001
  1.1290000e+003  4.3032542e-001
  1.1300000e+003  4.2636216e-001
  1.1310000e+003  4.2239891e-001
  1.1320000e+003  4.1843566e-001
  1.1330000e+003  4.1447241e-001
  1.1340000e+003  4.1050916e-001
  1.1350000e+003  4.0654591e-001
  1.1360000e+003  4.0258266e-001
  1.1370000e+003  3.9861941e-001
  1.1380000e+003  3.9465616e-001
  1.1390000e+003  3.9069291e-001
  1.1400000e+003  3.8924545e-001
  1.1410000e+003  3.9006235e-001
  1.1420000e+003  3.9087925e-001
  1.1430000e+003  3.9169615e-001
  1.1440000e+003  3.9251305e-001
  1.1450000e+003  3.9332995e-001
  1.1460000e+003  3.9414685e-001
  1.1470000e+003  3.9496375e-001
  1.1480000e+003  3.9578065e-001
  1.1490000e+003  3.9659755e-001
  1.1500000e+003  3.9741445e-001
  1.1510000e+003  3.9823135e-001
  1.1520000e+003  3.9904825e-001
  1.1530000e+003  3.9986515e-001
  1.1540000e+003  4.0068205e-001
  1.1550000e+003  4.0149895e-001
  1.1560000e+003  4.0231585e-001
  1.1570000e+003  4.0313275e-001
  1.1580000e+003  4.0394965e-001
  1.1590000e+003  4.0476655e-001
  1.1600000e+003  4.0558345e-001
  1.1610000e+003  4.0640035e-001
  1.1620000e+003  4.0721725e-001
  1.1630000e+003  4.0803415e-001
  1.1640000e+003  4.0885105e-001
  1.1650000e+003  4.0966794e-001
  1.1660000e+003  4.1048484e-001
  1.1670000e+003  4.1130174e-001
  1.1680000e+003  4.1211864e-001
  1.1690000e+003  4.1133995e-001
  1.1700000e+003  4.0940059e-001
  1.1710000e+003  4.0746124e-001
  1.1720000e+003  4.0552188e-001
  1.1730000e+003  4.0358252e-001
  1.1740000e+003  4.0164317e-001
  1.1750000e+003  3.9970381e-001
  1.1760000e+003  3.9776446e-001
  1.1770000e+003  3.9582510e-001
  1.1780000e+003  3.9388575e-001
  1.1790000e+003  3.9194639e-001
  1.1800000e+003  3.9000703e-001
  1.1810000e+003  3.8806768e-001
  1.1820000e+003  3.8612832e-001
  1.1830000e+003  3.8418897e-001
  1.1840000e+003  3.8224961e-001
  1.1850000e+003  3.8031026e-001
  1.1860000e+003  3.7837090e-001
  1.1870000e+003  3.7643154e-001
  1.1880000e+003  3.7449219e-001
  1.1890000e+003  3.7255283e-001
  1.1900000e+003  3.7061348e-001
  1.1910000e+003  3.6867412e-001
  1.1920000e+003  3.6673476e-001
  1.1930000e+003  3.6479541e-001
  1.1940000e+003  3.6285605e-001
  1.1950000e+003  3.6091670e-001
  1.1960000e+003  3.5897734e-001
  1.1970000e+003  3.5703799e-001
  1.1980000e+003  3.5509863e-001
  1.1990000e+003  3.5315927e-001
  1.2000000e+003  3.5121992e-001
  1.2010000e+003  3.4928056e-001
  1.2020000e+003  3.4734121e-001
  1.2030000e+003  3.4540185e-001
  1.2040000e+003  3.4346250e-001
  1.2050000e+003  3.4152314e-001
  1.2060000e+003  3.3958378e-001
  1.2070000e+003  3.3764443e-001
  1.2080000e+003  3.3570507e-001
  1.2090000e+003  3.3376572e-001
  1.2100000e+003  3.3182636e-001
  1.2110000e+003  3.2988701e-001
  1.2120000e+003  3.2794765e-001
  1.2130000e+003  3.2600829e-001
  1.2140000e+003  3.2470556e-001
  1.2150000e+003  3.2352219e-001
  1.2160000e+003  3.2233882e-001
  1.2170000e+003  3.2115545e-001
  1.2180000e+003  3.1997209e-001
  1.2190000e+003  3.1878872e-001
  1.2200000e+003  3.1760535e-001
  1.2210000e+003  3.1642199e-001
  1.2220000e+003  3.1523862e-001
  1.2230000e+003  3.1405525e-001
  1.2240000e+003  3.1287188e-001
  1.2250000e+003  3.1168852e-001
  1.2260000e+003  3.1050515e-001
  1.2270000e+003  3.0932178e-001
  1.2280000e+003  3.0813842e-001
  1.2290000e+003  3.0695505e-001
  1.2300000e+003  3.0577168e-001
  1.2310000e+003  3.0458831e-001
  1.2320000e+003  3.0340495e-001
  1.2330000e+003  3.0222158e-001
  1.2340000e+003  3.0103821e-001
  1.2350000e+003  2.9985484e-001
  1.2360000e+003  2.9867148e-001
  1.2370000e+003  2.9748811e-001
  1.2380000e+003  2.9630474e-001
  1.2390000e+003  2.9512138e-001
  1.2400000e+003  2.9393801e-001
  1.2410000e+003  2.9275464e-001
  1.2420000e+003  2.9157127e-001
  1.2430000e+003  2.9038791e-001
  1.2440000e+003  2.8920454e-001
  1.2450000e+003  2.8802117e-001
  1.2460000e+003  2.8683781e-001
  1.2470000e+003  2.8565444e-001
  1.2480000e+003  2.8447107e-001
  1.2490000e+003  2.8328770e-001
  1.2500000e+003  2.8210434e-001
  1.2510000e+003  2.8092097e-001
  1.2520000e+003  2.7973760e-001
  1.2530000e+003  2.7855424e-001
  1.2540000e+003  2.7737087e-001
  1.2550000e+003  2.7618750e-001
  1.2560000e+003  2.7500413e-001
  1.2570000e+003  2.7382077e-001
  1.2580000e+003  2.7263740e-001
  1.2590000e+003  2.7145403e-001
  1.2600000e+003  2.7027066e-001
  1.2610000e+003  2.6908730e-001
  1.2620000e+003  2.6790393e-001
  1.2630000e+003  2.6672056e-001
  1.2640000e+003  2.6553720e-001
  1.2650000e+003  2.6435383e-001
  1.2660000e+003  2.6317046e-001
  1.2670000e+003  2.6198709e-001
  1.2680000e+003  2.6080373e-001
  1.2690000e+003  2.5962036e-001
  1.2700000e+003  2.5843699e-001
  1.2710000e+003  2.5725363e-001
  1.2720000e+003  2.5796505e-001
  1.2730000e+003  2.5878168e-001
  1.2740000e+003  2.5959830e-001
  1.2750000e+003  2.6041493e-001
  1.2760000e+003  2.6123155e-001
  1.2770000e+003  2.6204818e-001
  1.2780000e+003  2.6286480e-001
  1.2790000e+003  2.6368143e-001
  1.2800000e+003  2.6449805e-001
  1.2810000e+003  2.6531468e-001
  1.2820000e+003  2.6613131e-001
  1.2830000e+003  2.6694793e-001
  1.2840000e+003  2.6776456e-001
  1.2850000e+003  2.6858118e-001
  1.2860000e+003  2.6939781e-001
  1.2870000e+003  2.7021443e-001
  1.2880000e+003  2.7103106e-001
  1.2890000e+003  2.7184768e-001
  1.2900000e+003  2.7266431e-001
  1.2910000e+003  2.7348094e-001
  1.2920000e+003  2.7429756e-001
  1.2930000e+003  2.7511419e-001
  1.2940000e+003  2.7593081e-001
  1.2950000e+003  2.7674744e-001
  1.2960000e+003  2.7756406e-001
  1.2970000e+003  2.7838069e-001
  1.2980000e+003  2.7919731e-001
  1.2990000e+003  2.8001394e-001
  1.3000000e+003  2.8083056e-001
  1.3010000e+003  2.8164719e-001
  1.3020000e+003  2.8246382e-001
  1.3030000e+003  2.8328044e-001
  1.3040000e+003  2.8409707e-001
  1.3050000e+003  2.8491369e-001
  1.3060000e+003  2.8573032e-001
  1.3070000e+003  2.8654694e-001
  1.3080000e+003  2.8736357e-001
  1.3090000e+003  2.8818019e-001
  1.3100000e+003  2.8899682e-001
  1.3110000e+003  2.8974346e-001
  1.3120000e+003  2.9041236e-001
  1.3130000e+003  2.9108125e-001
  1.3140000e+003  2.9175014e-001
  1.3150000e+003  2.9241904e-001
  1.3160000e+003  2.9308793e-001
  1.3170000e+003  2.9375682e-001
  1.3180000e+003  2.9442571e-001
  1.3190000e+003  2.9509461e-001
  1.3200000e+003  2.9576350e-001
  1.3210000e+003  2.9643239e-001
  1.3220000e+003  2.9710129e-001
  1.3230000e+003  2.9777018e-001
  1.3240000e+003  2.9843907e-001
  1.3250000e+003  2.9910796e-001
  1.3260000e+003  2.9977686e-001
  1.3270000e+003  3.0044575e-001
  1.3280000e+003  3.0111464e-001
  1.3290000e+003  3.0178354e-001
  1.3300000e+003  3.0245243e-001
  1.3310000e+003  3.0312132e-001
  1.3320000e+003  3.0379021e-001
  1.3330000e+003  3.0445911e-001
  1.3340000e+003  3.0512800e-001
  1.3350000e+003  3.0579689e-001
  1.3360000e+003  3.0646579e-001
  1.3370000e+003  3.0702906e-001
  1.3380000e+003  3.0702906e-001
  1.3390000e+003  3.0702906e-001
  1.3400000e+003  3.0702906e-001
  1.3410000e+003  3.0702906e-001
  1.3420000e+003  3.0702906e-001
  1.3430000e+003  3.0702906e-001
  1.3440000e+003  3.0702906e-001
  1.3450000e+003  3.0702906e-001
  1.3460000e+003  3.0702906e-001
  1.3470000e+003  3.0702906e-001
  1.3480000e+003  3.0702906e-001
  1.3490000e+003  3.0702906e-001
  1.3500000e+003  3.0702906e-001
  1.3510000e+003  3.0702906e-001
  1.3520000e+003  3.0702906e-001
  1.3530000e+003  3.0702906e-001
  1.3540000e+003  3.0702906e-001
  1.3550000e+003  3.0702906e-001
  1.3560000e+003  3.0702906e-001
  1.3570000e+003  3.0702906e-001
  1.3580000e+003  3.0702906e-001
  1.3590000e+003  3.0702906e-001
  1.3600000e+003  3.0702906e-001
  1.3610000e+003  3.0702906e-001
  1.3620000e+003  3.0702906e-001
  1.3630000e+003  3.0702906e-001
  1.3640000e+003  3.0702906e-001
  1.3650000e+003  3.0702906e-001
  1.3660000e+003  3.0702906e-001
  1.3670000e+003  3.0702906e-001
  1.3680000e+003  3.0702906e-001
  1.3690000e+003  3.0702906e-001
  1.3700000e+003  3.0702906e-001
  1.3710000e+003  3.0702906e-001
  1.3720000e+003  3.0702906e-001
  1.3730000e+003  3.0702906e-001
  1.3740000e+003  3.0702906e-001
  1.3750000e+003  3.0702906e-001
  1.3760000e+003  3.0702906e-001
  1.3770000e+003  3.0702906e-001
  1.3780000e+003  3.0702906e-001
  1.3790000e+003  3.0702906e-001
  1.3800000e+003  3.0702906e-001
  1.3810000e+003  3.0702906e-001
  1.3820000e+003  3.0702906e-001
  1.3830000e+003  3.0702906e-001
  1.3840000e+003  3.0702906e-001
  1.3850000e+003  3.1320608e-001
  1.3860000e+003  3.2103004e-001
  1.3870000e+003  3.2885401e-001
  1.3880000e+003  3.3667797e-001
  1.3890000e+003  3.4450194e-001
  1.3900000e+003  3.5232590e-001
  1.3910000e+003  3.6014987e-001
  1.3920000e+003  3.6797383e-001
  1.3930000e+003  3.7579779e-001
  1.3940000e+003  3.8362176e-001
  1.3950000e+003  3.9144572e-001
  1.3960000e+003  3.9926969e-001
  1.3970000e+003  4.0709365e-001
  1.3980000e+003  4.1491762e-001
  1.3990000e+003  4.2274158e-001
  1.4000000e+003  4.3056554e-001
  1.4010000e+003  4.3838951e-001
  1.4020000e+003  4.4621347e-001
  1.4030000e+003  4.5403744e-001
  1.4040000e+003  4.6186140e-001
  1.4050000e+003  4.6968537e-001
  1.4060000e+003  4.7750933e-001
  1.4070000e+003  4.8533330e-001
  1.4080000e+003  4.9315726e-001
  1.4090000e+003  5.0098122e-001
  1.4100000e+003  5.0880519e-001
  1.4110000e+003  5.1662915e-001
  1.4120000e+003  5.2445312e-001
  1.4130000e+003  5.3227708e-001
  1.4140000e+003  5.4010105e-001
  1.4150000e+003  5.4792501e-001
  1.4160000e+003  5.5463882e-001
  1.4170000e+003  5.5718891e-001
  1.4180000e+003  5.5973900e-001
  1.4190000e+003  5.6228909e-001
  1.4200000e+003  5.6483918e-001
  1.4210000e+003  5.6738927e-001
  1.4220000e+003  5.6993936e-001
  1.4230000e+003  5.7248945e-001
  1.4240000e+003  5.7503954e-001
  1.4250000e+003  5.7758963e-001
  1.4260000e+003  5.8013972e-001
  1.4270000e+003  5.8268981e-001
  1.4280000e+003  5.8523990e-001
  1.4290000e+003  5.8778999e-001
  1.4300000e+003  5.9034008e-001
  1.4310000e+003  5.9289017e-001
  1.4320000e+003  5.9544026e-001
  1.4330000e+003  5.9799035e-001
  1.4340000e+003  6.0054044e-001
  1.4350000e+003  6.0309053e-001
  1.4360000e+003  6.0564061e-001
  1.4370000e+003  6.0819070e-001
  1.4380000e+003  6.1074079e-001
  1.4390000e+003  6.1329088e-001
  1.4400000e+003  6.1584097e-001
  1.4410000e+003  6.1839106e-001
  1.4420000e+003  6.2094115e-001
  1.4430000e+003  6.2349124e-001
  1.4440000e+003  6.2604133e-001
  1.4450000e+003  6.2859142e-001
  1.4460000e+003  6.3114151e-001
  1.4470000e+003  6.3369160e-001
  1.4480000e+003  6.3624169e-001
  1.4490000e+003  6.3879178e-001
  1.4500000e+003  6.4134187e-001
  1.4510000e+003  6.4389196e-001
  1.4520000e+003  6.4644205e-001
  1.4530000e+003  6.4899214e-001
  1.4540000e+003  6.5154223e-001
  1.4550000e+003  6.5409232e-001
  1.4560000e+003  6.5664241e-001
  1.4570000e+003  6.5919249e-001
  1.4580000e+003  6.6259923e-001
  1.4590000e+003  6.7328461e-001
  1.4600000e+003  6.8397000e-001
  1.4610000e+003  6.9465538e-001
  1.4620000e+003  7.0534076e-001
  1.4630000e+003  7.1602615e-001
  1.4640000e+003  7.2671153e-001
  1.4650000e+003  7.3739691e-001
  1.4660000e+003  7.4808229e-001
  1.4670000e+003  7.5876768e-001
  1.4680000e+003  7.6945306e-001
  1.4690000e+003  7.8013844e-001
  1.4700000e+003  7.9082383e-001
  1.4710000e+003  8.0150921e-001
  1.4720000e+003  8.1219459e-001
  1.4730000e+003  8.2287997e-001
  1.4740000e+003  8.3356536e-001
  1.4750000e+003  8.4425074e-001
  1.4760000e+003  8.5493612e-001
  1.4770000e+003  8.6562151e-001
  1.4780000e+003  8.7630689e-001
  1.4790000e+003  8.8699227e-001
  1.4800000e+003  8.9767766e-001
  1.4810000e+003  9.0836304e-001
  1.4820000e+003  9.1904842e-001
  1.4830000e+003  9.2973380e-001
  1.4840000e+003  9.4041919e-001
  1.4850000e+003  9.3815023e-001
  1.4860000e+003  9.3242732e-001
  1.4870000e+003  9.2670442e-001
  1.4880000e+003  9.2098151e-001
  1.4890000e+003  9.1525861e-001
  1.4900000e+003  9.0953570e-001
  1.4910000e+003  9.0381280e-001
  1.4920000e+003  8.9808989e-001
  1.4930000e+003  8.9236699e-001
  1.4940000e+003  8.8664408e-001
  1.4950000e+003  8.8092118e-001
  1.4960000e+003  8.7519827e-001
  1.4970000e+003  8.6947537e-001
  1.4980000e+003  8.6375246e-001
  1.4990000e+003  8.5802956e-001
  1.5000000e+003  8.5230665e-001
  1.5010000e+003  8.4658375e-001
  1.5020000e+003  8.4086084e-001
  1.5030000e+003  8.3513794e-001
  1.5040000e+003  8.2941503e-001
  1.5050000e+003  8.2369213e-001
  1.5060000e+003  8.1796922e-001
  1.5070000e+003  8.1224632e-001
  1.5080000e+003  8.0652341e-001
  1.5090000e+003  8.0080051e-001
  1.5100000e+003  7.9507760e-001
  1.5110000e+003  7.8935470e-001
  1.5120000e+003  7.8363179e-001
  1.5130000e+003  7.7790889e-001
  1.5140000e+003  7.7218598e-001
  1.5150000e+003  7.6646308e-001
  1.5160000e+003  7.6074017e-001
  1.5170000e+003  7.5501727e-001
  1.5180000e+003  7.4929436e-001
  1.5190000e+003  7.4357146e-001
  1.5200000e+003  7.3784855e-001
  1.5210000e+003  7.3212565e-001
  1.5220000e+003  7.2640274e-001
  1.5230000e+003  7.2067984e-001
  1.5240000e+003  7.1495693e-001
  1.5250000e+003  7.0923403e-001
  1.5260000e+003  7.0351112e-001
  1.5270000e+003  7.0025244e-001
  1.5280000e+003  6.9813114e-001
  1.5290000e+003  6.9600984e-001
  1.5300000e+003  6.9388854e-001
  1.5310000e+003  6.9176724e-001
  1.5320000e+003  6.8964594e-001
  1.5330000e+003  6.8752465e-001
  1.5340000e+003  6.8540335e-001
  1.5350000e+003  6.8328205e-001
  1.5360000e+003  6.8116075e-001
  1.5370000e+003  6.7903945e-001
  1.5380000e+003  6.7691815e-001
  1.5390000e+003  6.7479685e-001
  1.5400000e+003  6.7267555e-001
  1.5410000e+003  6.7055426e-001
  1.5420000e+003  6.6843296e-001
  1.5430000e+003  6.6631166e-001
  1.5440000e+003  6.6419036e-001
  1.5450000e+003  6.6206906e-001
  1.5460000e+003  6.5994776e-001
  1.5470000e+003  6.5782646e-001
  1.5480000e+003  6.5570516e-001
  1.5490000e+003  6.5358387e-001
  1.5500000e+003  6.5146257e-001
  1.5510000e+003  6.4934127e-001
  1.5520000e+003  6.4721997e-001
  1.5530000e+003  6.4509867e-001
  1.5540000e+003  6.4297737e-001
  1.5550000e+003  6.4085607e-001
  1.5560000e+003  6.3873477e-001
  1.5570000e+003  6.3661348e-001
  1.5580000e+003  6.3449218e-001
  1.5590000e+003  6.3237088e-001
  1.5600000e+003  6.3024958e-001
  1.5610000e+003  6.2812828e-001
  1.5620000e+003  6.2600698e-001
  1.5630000e+003  6.2388568e-001
  1.5640000e+003  6.2164413e-001
  1.5650000e+003  6.1938002e-001
  1.5660000e+003  6.1711591e-001
  1.5670000e+003  6.1485180e-001
  1.5680000e+003  6.1258770e-001
  1.5690000e+003  6.1032359e-001
  1.5700000e+003  6.0805948e-001
  1.5710000e+003  6.0579538e-001
  1.5720000e+003  6.0353127e-001
  1.5730000e+003  6.0126716e-001
  1.5740000e+003  5.9900305e-001
  1.5750000e+003  5.9673895e-001
  1.5760000e+003  5.9447484e-001
  1.5770000e+003  5.9221073e-001
  1.5780000e+003  5.8994663e-001
  1.5790000e+003  5.8759545e-001
  1.5800000e+003  5.8367611e-001
  1.5810000e+003  5.7975676e-001
  1.5820000e+003  5.7583742e-001
  1.5830000e+003  5.7191807e-001
  1.5840000e+003  5.6799873e-001
  1.5850000e+003  5.6407938e-001
  1.5860000e+003  5.6016003e-001
  1.5870000e+003  5.5624069e-001
  1.5880000e+003  5.5232134e-001
  1.5890000e+003  5.4840200e-001
  1.5900000e+003  5.4448265e-001
  1.5910000e+003  5.4056331e-001
  1.5920000e+003  5.3664396e-001
  1.5930000e+003  5.3272462e-001
  1.5940000e+003  5.2880527e-001
  1.5950000e+003  5.2488593e-001
  1.5960000e+003  5.2096658e-001
  1.5970000e+003  5.1704724e-001
  1.5980000e+003  5.1312789e-001
  1.5990000e+003  5.0920855e-001
  1.6000000e+003  5.0528920e-001
